%YAML 1.1
%TAG !u! tag:unity3d.com,2011:
--- !u!29 &1
OcclusionCullingSettings:
  m_ObjectHideFlags: 0
  serializedVersion: 2
  m_OcclusionBakeSettings:
    smallestOccluder: 5
    smallestHole: 0.25
    backfaceThreshold: 100
  m_SceneGUID: 00000000000000000000000000000000
  m_OcclusionCullingData: {fileID: 0}
--- !u!104 &2
RenderSettings:
  m_ObjectHideFlags: 0
  serializedVersion: 8
  m_Fog: 0
  m_FogColor: {r: 0.5, g: 0.5, b: 0.5, a: 1}
  m_FogMode: 3
  m_FogDensity: 0.01
  m_LinearFogStart: 0
  m_LinearFogEnd: 300
  m_AmbientSkyColor: {r: 0.212, g: 0.227, b: 0.259, a: 1}
  m_AmbientEquatorColor: {r: 0.114, g: 0.125, b: 0.133, a: 1}
  m_AmbientGroundColor: {r: 0.047, g: 0.043, b: 0.035, a: 1}
  m_AmbientIntensity: 1
  m_AmbientMode: 0
  m_SubtractiveShadowColor: {r: 0.42, g: 0.478, b: 0.627, a: 1}
  m_SkyboxMaterial: {fileID: 10304, guid: 0000000000000000f000000000000000, type: 0}
  m_HaloStrength: 0.5
  m_FlareStrength: 1
  m_FlareFadeSpeed: 3
  m_HaloTexture: {fileID: 0}
  m_SpotCookie: {fileID: 10001, guid: 0000000000000000e000000000000000, type: 0}
  m_DefaultReflectionMode: 0
  m_DefaultReflectionResolution: 128
  m_ReflectionBounces: 1
  m_ReflectionIntensity: 1
  m_CustomReflection: {fileID: 0}
  m_Sun: {fileID: 0}
  m_IndirectSpecularColor: {r: 0, g: 0, b: 0, a: 1}
--- !u!157 &3
LightmapSettings:
  m_ObjectHideFlags: 0
  serializedVersion: 11
  m_GIWorkflowMode: 0
  m_GISettings:
    serializedVersion: 2
    m_BounceScale: 1
    m_IndirectOutputScale: 1
    m_AlbedoBoost: 1
    m_TemporalCoherenceThreshold: 1
    m_EnvironmentLightingMode: 0
    m_EnableBakedLightmaps: 1
    m_EnableRealtimeLightmaps: 1
  m_LightmapEditorSettings:
    serializedVersion: 9
    m_Resolution: 2
    m_BakeResolution: 40
    m_TextureWidth: 1024
    m_TextureHeight: 1024
    m_AO: 0
    m_AOMaxDistance: 1
    m_CompAOExponent: 1
    m_CompAOExponentDirect: 0
    m_Padding: 2
    m_LightmapParameters: {fileID: 0}
    m_LightmapsBakeMode: 1
    m_TextureCompression: 1
    m_FinalGather: 0
    m_FinalGatherFiltering: 1
    m_FinalGatherRayCount: 256
    m_ReflectionCompression: 2
    m_MixedBakeMode: 2
    m_BakeBackend: 0
    m_PVRSampling: 1
    m_PVRDirectSampleCount: 32
    m_PVRSampleCount: 500
    m_PVRBounces: 2
    m_PVRFilterTypeDirect: 0
    m_PVRFilterTypeIndirect: 0
    m_PVRFilterTypeAO: 0
    m_PVRFilteringMode: 1
    m_PVRCulling: 1
    m_PVRFilteringGaussRadiusDirect: 1
    m_PVRFilteringGaussRadiusIndirect: 5
    m_PVRFilteringGaussRadiusAO: 2
    m_PVRFilteringAtrousPositionSigmaDirect: 0.5
    m_PVRFilteringAtrousPositionSigmaIndirect: 2
    m_PVRFilteringAtrousPositionSigmaAO: 1
    m_ShowResolutionOverlay: 1
  m_LightingDataAsset: {fileID: 0}
  m_UseShadowmask: 1
--- !u!196 &4
NavMeshSettings:
  serializedVersion: 2
  m_ObjectHideFlags: 0
  m_BuildSettings:
    serializedVersion: 2
    agentTypeID: 0
    agentRadius: 0.5
    agentHeight: 2
    agentSlope: 45
    agentClimb: 0.4
    ledgeDropHeight: 0
    maxJumpAcrossDistance: 0
    minRegionArea: 2
    manualCellSize: 0
    cellSize: 0.16666667
    manualTileSize: 0
    tileSize: 256
    accuratePlacement: 0
    debug:
      m_Flags: 0
  m_NavMeshData: {fileID: 0}
--- !u!1 &28108014
GameObject:
  m_ObjectHideFlags: 0
  m_PrefabParentObject: {fileID: 1000011375987352, guid: 7d0bcfe5ecdb4e04a8dfabfc0bd1c32d,
    type: 2}
  m_PrefabInternal: {fileID: 1527947991}
  serializedVersion: 5
  m_Component:
  - component: {fileID: 28108015}
  - component: {fileID: 28108017}
  - component: {fileID: 28108016}
  m_Layer: 5
  m_Name: Touch8
  m_TagString: Untagged
  m_Icon: {fileID: 0}
  m_NavMeshLayer: 0
  m_StaticEditorFlags: 0
  m_IsActive: 0
--- !u!224 &28108015
RectTransform:
  m_ObjectHideFlags: 0
  m_PrefabParentObject: {fileID: 224000013406352616, guid: 7d0bcfe5ecdb4e04a8dfabfc0bd1c32d,
    type: 2}
  m_PrefabInternal: {fileID: 1527947991}
  m_GameObject: {fileID: 28108014}
  m_LocalRotation: {x: 0, y: 0, z: 0, w: 1}
  m_LocalPosition: {x: 0, y: 0, z: 0}
  m_LocalScale: {x: 1, y: 1, z: 1}
  m_Children: []
  m_Father: {fileID: 1731137534}
  m_RootOrder: 7
  m_LocalEulerAnglesHint: {x: 0, y: 0, z: 0}
  m_AnchorMin: {x: 0.5, y: 0.5}
  m_AnchorMax: {x: 0.5, y: 0.5}
  m_AnchoredPosition: {x: 0, y: 0}
  m_SizeDelta: {x: 20, y: 20}
  m_Pivot: {x: 0.5, y: 0.5}
--- !u!114 &28108016
MonoBehaviour:
  m_ObjectHideFlags: 0
  m_PrefabParentObject: {fileID: 114000013692072316, guid: 7d0bcfe5ecdb4e04a8dfabfc0bd1c32d,
    type: 2}
  m_PrefabInternal: {fileID: 1527947991}
  m_GameObject: {fileID: 28108014}
  m_Enabled: 1
  m_EditorHideFlags: 0
  m_Script: {fileID: -765806418, guid: f5f67c52d1564df4a8936ccd202a3bd8, type: 3}
  m_Name: 
  m_EditorClassIdentifier: 
  m_Material: {fileID: 0}
  m_Color: {r: 1, g: 1, b: 1, a: 1}
  m_RaycastTarget: 0
  m_OnCullStateChanged:
    m_PersistentCalls:
      m_Calls: []
    m_TypeName: UnityEngine.UI.MaskableGraphic+CullStateChangedEvent, UnityEngine.UI,
      Version=1.0.0.0, Culture=neutral, PublicKeyToken=null
  m_Sprite: {fileID: 10913, guid: 0000000000000000f000000000000000, type: 0}
  m_Type: 0
  m_PreserveAspect: 0
  m_FillCenter: 1
  m_FillMethod: 4
  m_FillAmount: 1
  m_FillClockwise: 1
  m_FillOrigin: 0
--- !u!222 &28108017
CanvasRenderer:
  m_ObjectHideFlags: 0
  m_PrefabParentObject: {fileID: 222000013860683682, guid: 7d0bcfe5ecdb4e04a8dfabfc0bd1c32d,
    type: 2}
  m_PrefabInternal: {fileID: 1527947991}
  m_GameObject: {fileID: 28108014}
--- !u!1 &32801571
GameObject:
  m_ObjectHideFlags: 0
  m_PrefabParentObject: {fileID: 1000013316710866, guid: 7d0bcfe5ecdb4e04a8dfabfc0bd1c32d,
    type: 2}
  m_PrefabInternal: {fileID: 1527947991}
  serializedVersion: 5
  m_Component:
  - component: {fileID: 32801572}
  - component: {fileID: 32801574}
  - component: {fileID: 32801573}
  m_Layer: 5
  m_Name: Touch9
  m_TagString: Untagged
  m_Icon: {fileID: 0}
  m_NavMeshLayer: 0
  m_StaticEditorFlags: 0
  m_IsActive: 0
--- !u!224 &32801572
RectTransform:
  m_ObjectHideFlags: 0
  m_PrefabParentObject: {fileID: 224000013977202756, guid: 7d0bcfe5ecdb4e04a8dfabfc0bd1c32d,
    type: 2}
  m_PrefabInternal: {fileID: 1527947991}
  m_GameObject: {fileID: 32801571}
  m_LocalRotation: {x: 0, y: 0, z: 0, w: 1}
  m_LocalPosition: {x: 0, y: 0, z: 0}
  m_LocalScale: {x: 1, y: 1, z: 1}
  m_Children: []
  m_Father: {fileID: 1731137534}
  m_RootOrder: 8
  m_LocalEulerAnglesHint: {x: 0, y: 0, z: 0}
  m_AnchorMin: {x: 0.5, y: 0.5}
  m_AnchorMax: {x: 0.5, y: 0.5}
  m_AnchoredPosition: {x: 0, y: 0}
  m_SizeDelta: {x: 20, y: 20}
  m_Pivot: {x: 0.5, y: 0.5}
--- !u!114 &32801573
MonoBehaviour:
  m_ObjectHideFlags: 0
  m_PrefabParentObject: {fileID: 114000013725235662, guid: 7d0bcfe5ecdb4e04a8dfabfc0bd1c32d,
    type: 2}
  m_PrefabInternal: {fileID: 1527947991}
  m_GameObject: {fileID: 32801571}
  m_Enabled: 1
  m_EditorHideFlags: 0
  m_Script: {fileID: -765806418, guid: f5f67c52d1564df4a8936ccd202a3bd8, type: 3}
  m_Name: 
  m_EditorClassIdentifier: 
  m_Material: {fileID: 0}
  m_Color: {r: 1, g: 1, b: 1, a: 1}
  m_RaycastTarget: 0
  m_OnCullStateChanged:
    m_PersistentCalls:
      m_Calls: []
    m_TypeName: UnityEngine.UI.MaskableGraphic+CullStateChangedEvent, UnityEngine.UI,
      Version=1.0.0.0, Culture=neutral, PublicKeyToken=null
  m_Sprite: {fileID: 10913, guid: 0000000000000000f000000000000000, type: 0}
  m_Type: 0
  m_PreserveAspect: 0
  m_FillCenter: 1
  m_FillMethod: 4
  m_FillAmount: 1
  m_FillClockwise: 1
  m_FillOrigin: 0
--- !u!222 &32801574
CanvasRenderer:
  m_ObjectHideFlags: 0
  m_PrefabParentObject: {fileID: 222000014057880052, guid: 7d0bcfe5ecdb4e04a8dfabfc0bd1c32d,
    type: 2}
  m_PrefabInternal: {fileID: 1527947991}
  m_GameObject: {fileID: 32801571}
--- !u!1 &119378152
GameObject:
  m_ObjectHideFlags: 0
  m_PrefabParentObject: {fileID: 1914811874445102, guid: 7d0bcfe5ecdb4e04a8dfabfc0bd1c32d,
    type: 2}
  m_PrefabInternal: {fileID: 1527947991}
  serializedVersion: 5
  m_Component:
  - component: {fileID: 119378153}
  - component: {fileID: 119378155}
  - component: {fileID: 119378154}
  m_Layer: 5
  m_Name: Touch30
  m_TagString: Untagged
  m_Icon: {fileID: 0}
  m_NavMeshLayer: 0
  m_StaticEditorFlags: 0
  m_IsActive: 0
--- !u!224 &119378153
RectTransform:
  m_ObjectHideFlags: 0
  m_PrefabParentObject: {fileID: 224369661538095428, guid: 7d0bcfe5ecdb4e04a8dfabfc0bd1c32d,
    type: 2}
  m_PrefabInternal: {fileID: 1527947991}
  m_GameObject: {fileID: 119378152}
  m_LocalRotation: {x: -0, y: -0, z: -0, w: 1}
  m_LocalPosition: {x: 0, y: 0, z: 0}
  m_LocalScale: {x: 1, y: 1, z: 1}
  m_Children: []
  m_Father: {fileID: 1731137534}
  m_RootOrder: 29
  m_LocalEulerAnglesHint: {x: 0, y: 0, z: 0}
  m_AnchorMin: {x: 0.5, y: 0.5}
  m_AnchorMax: {x: 0.5, y: 0.5}
  m_AnchoredPosition: {x: 0, y: 0}
  m_SizeDelta: {x: 20, y: 20}
  m_Pivot: {x: 0.5, y: 0.5}
--- !u!114 &119378154
MonoBehaviour:
  m_ObjectHideFlags: 0
  m_PrefabParentObject: {fileID: 114090336624260732, guid: 7d0bcfe5ecdb4e04a8dfabfc0bd1c32d,
    type: 2}
  m_PrefabInternal: {fileID: 1527947991}
  m_GameObject: {fileID: 119378152}
  m_Enabled: 1
  m_EditorHideFlags: 0
  m_Script: {fileID: -765806418, guid: f5f67c52d1564df4a8936ccd202a3bd8, type: 3}
  m_Name: 
  m_EditorClassIdentifier: 
  m_Material: {fileID: 0}
  m_Color: {r: 1, g: 1, b: 1, a: 1}
  m_RaycastTarget: 0
  m_OnCullStateChanged:
    m_PersistentCalls:
      m_Calls: []
    m_TypeName: UnityEngine.UI.MaskableGraphic+CullStateChangedEvent, UnityEngine.UI,
      Version=1.0.0.0, Culture=neutral, PublicKeyToken=null
  m_Sprite: {fileID: 10913, guid: 0000000000000000f000000000000000, type: 0}
  m_Type: 0
  m_PreserveAspect: 0
  m_FillCenter: 1
  m_FillMethod: 4
  m_FillAmount: 1
  m_FillClockwise: 1
  m_FillOrigin: 0
--- !u!222 &119378155
CanvasRenderer:
  m_ObjectHideFlags: 0
  m_PrefabParentObject: {fileID: 222293302131846654, guid: 7d0bcfe5ecdb4e04a8dfabfc0bd1c32d,
    type: 2}
  m_PrefabInternal: {fileID: 1527947991}
  m_GameObject: {fileID: 119378152}
--- !u!1 &157081270
GameObject:
  m_ObjectHideFlags: 0
  m_PrefabParentObject: {fileID: 1000013210075272, guid: 7d0bcfe5ecdb4e04a8dfabfc0bd1c32d,
    type: 2}
  m_PrefabInternal: {fileID: 1527947991}
  serializedVersion: 5
  m_Component:
  - component: {fileID: 157081271}
  - component: {fileID: 157081273}
  - component: {fileID: 157081272}
  m_Layer: 5
  m_Name: Touch3
  m_TagString: Untagged
  m_Icon: {fileID: 0}
  m_NavMeshLayer: 0
  m_StaticEditorFlags: 0
  m_IsActive: 0
--- !u!224 &157081271
RectTransform:
  m_ObjectHideFlags: 0
  m_PrefabParentObject: {fileID: 224000012899775412, guid: 7d0bcfe5ecdb4e04a8dfabfc0bd1c32d,
    type: 2}
  m_PrefabInternal: {fileID: 1527947991}
  m_GameObject: {fileID: 157081270}
  m_LocalRotation: {x: 0, y: 0, z: 0, w: 1}
  m_LocalPosition: {x: 0, y: 0, z: 0}
  m_LocalScale: {x: 1, y: 1, z: 1}
  m_Children: []
  m_Father: {fileID: 1731137534}
  m_RootOrder: 2
  m_LocalEulerAnglesHint: {x: 0, y: 0, z: 0}
  m_AnchorMin: {x: 0.5, y: 0.5}
  m_AnchorMax: {x: 0.5, y: 0.5}
  m_AnchoredPosition: {x: 0, y: 0}
  m_SizeDelta: {x: 20, y: 20}
  m_Pivot: {x: 0.5, y: 0.5}
--- !u!114 &157081272
MonoBehaviour:
  m_ObjectHideFlags: 0
  m_PrefabParentObject: {fileID: 114000010648901398, guid: 7d0bcfe5ecdb4e04a8dfabfc0bd1c32d,
    type: 2}
  m_PrefabInternal: {fileID: 1527947991}
  m_GameObject: {fileID: 157081270}
  m_Enabled: 1
  m_EditorHideFlags: 0
  m_Script: {fileID: -765806418, guid: f5f67c52d1564df4a8936ccd202a3bd8, type: 3}
  m_Name: 
  m_EditorClassIdentifier: 
  m_Material: {fileID: 0}
  m_Color: {r: 1, g: 1, b: 1, a: 1}
  m_RaycastTarget: 0
  m_OnCullStateChanged:
    m_PersistentCalls:
      m_Calls: []
    m_TypeName: UnityEngine.UI.MaskableGraphic+CullStateChangedEvent, UnityEngine.UI,
      Version=1.0.0.0, Culture=neutral, PublicKeyToken=null
  m_Sprite: {fileID: 10913, guid: 0000000000000000f000000000000000, type: 0}
  m_Type: 0
  m_PreserveAspect: 0
  m_FillCenter: 1
  m_FillMethod: 4
  m_FillAmount: 1
  m_FillClockwise: 1
  m_FillOrigin: 0
--- !u!222 &157081273
CanvasRenderer:
  m_ObjectHideFlags: 0
  m_PrefabParentObject: {fileID: 222000013166714808, guid: 7d0bcfe5ecdb4e04a8dfabfc0bd1c32d,
    type: 2}
  m_PrefabInternal: {fileID: 1527947991}
  m_GameObject: {fileID: 157081270}
--- !u!1 &158482162
GameObject:
  m_ObjectHideFlags: 0
  m_PrefabParentObject: {fileID: 1533711772019270, guid: 7d0bcfe5ecdb4e04a8dfabfc0bd1c32d,
    type: 2}
  m_PrefabInternal: {fileID: 1527947991}
  serializedVersion: 5
  m_Component:
  - component: {fileID: 158482163}
  - component: {fileID: 158482165}
  - component: {fileID: 158482164}
  m_Layer: 5
  m_Name: Touch17
  m_TagString: Untagged
  m_Icon: {fileID: 0}
  m_NavMeshLayer: 0
  m_StaticEditorFlags: 0
  m_IsActive: 0
--- !u!224 &158482163
RectTransform:
  m_ObjectHideFlags: 0
  m_PrefabParentObject: {fileID: 224342218339957024, guid: 7d0bcfe5ecdb4e04a8dfabfc0bd1c32d,
    type: 2}
  m_PrefabInternal: {fileID: 1527947991}
  m_GameObject: {fileID: 158482162}
  m_LocalRotation: {x: -0, y: -0, z: -0, w: 1}
  m_LocalPosition: {x: 0, y: 0, z: 0}
  m_LocalScale: {x: 1, y: 1, z: 1}
  m_Children: []
  m_Father: {fileID: 1731137534}
  m_RootOrder: 16
  m_LocalEulerAnglesHint: {x: 0, y: 0, z: 0}
  m_AnchorMin: {x: 0.5, y: 0.5}
  m_AnchorMax: {x: 0.5, y: 0.5}
  m_AnchoredPosition: {x: 0, y: 0}
  m_SizeDelta: {x: 20, y: 20}
  m_Pivot: {x: 0.5, y: 0.5}
--- !u!114 &158482164
MonoBehaviour:
  m_ObjectHideFlags: 0
  m_PrefabParentObject: {fileID: 114555311356235176, guid: 7d0bcfe5ecdb4e04a8dfabfc0bd1c32d,
    type: 2}
  m_PrefabInternal: {fileID: 1527947991}
  m_GameObject: {fileID: 158482162}
  m_Enabled: 1
  m_EditorHideFlags: 0
  m_Script: {fileID: -765806418, guid: f5f67c52d1564df4a8936ccd202a3bd8, type: 3}
  m_Name: 
  m_EditorClassIdentifier: 
  m_Material: {fileID: 0}
  m_Color: {r: 1, g: 1, b: 1, a: 1}
  m_RaycastTarget: 0
  m_OnCullStateChanged:
    m_PersistentCalls:
      m_Calls: []
    m_TypeName: UnityEngine.UI.MaskableGraphic+CullStateChangedEvent, UnityEngine.UI,
      Version=1.0.0.0, Culture=neutral, PublicKeyToken=null
  m_Sprite: {fileID: 10913, guid: 0000000000000000f000000000000000, type: 0}
  m_Type: 0
  m_PreserveAspect: 0
  m_FillCenter: 1
  m_FillMethod: 4
  m_FillAmount: 1
  m_FillClockwise: 1
  m_FillOrigin: 0
--- !u!222 &158482165
CanvasRenderer:
  m_ObjectHideFlags: 0
  m_PrefabParentObject: {fileID: 222014832281719496, guid: 7d0bcfe5ecdb4e04a8dfabfc0bd1c32d,
    type: 2}
  m_PrefabInternal: {fileID: 1527947991}
  m_GameObject: {fileID: 158482162}
--- !u!1 &171091874
GameObject:
  m_ObjectHideFlags: 0
  m_PrefabParentObject: {fileID: 1941275124502426, guid: 7d0bcfe5ecdb4e04a8dfabfc0bd1c32d,
    type: 2}
  m_PrefabInternal: {fileID: 1527947991}
  serializedVersion: 5
  m_Component:
  - component: {fileID: 171091875}
  - component: {fileID: 171091877}
  - component: {fileID: 171091876}
  m_Layer: 5
  m_Name: Touch14
  m_TagString: Untagged
  m_Icon: {fileID: 0}
  m_NavMeshLayer: 0
  m_StaticEditorFlags: 0
  m_IsActive: 0
--- !u!224 &171091875
RectTransform:
  m_ObjectHideFlags: 0
  m_PrefabParentObject: {fileID: 224532055552833520, guid: 7d0bcfe5ecdb4e04a8dfabfc0bd1c32d,
    type: 2}
  m_PrefabInternal: {fileID: 1527947991}
  m_GameObject: {fileID: 171091874}
  m_LocalRotation: {x: -0, y: -0, z: -0, w: 1}
  m_LocalPosition: {x: 0, y: 0, z: 0}
  m_LocalScale: {x: 1, y: 1, z: 1}
  m_Children: []
  m_Father: {fileID: 1731137534}
  m_RootOrder: 13
  m_LocalEulerAnglesHint: {x: 0, y: 0, z: 0}
  m_AnchorMin: {x: 0.5, y: 0.5}
  m_AnchorMax: {x: 0.5, y: 0.5}
  m_AnchoredPosition: {x: 0, y: 0}
  m_SizeDelta: {x: 20, y: 20}
  m_Pivot: {x: 0.5, y: 0.5}
--- !u!114 &171091876
MonoBehaviour:
  m_ObjectHideFlags: 0
  m_PrefabParentObject: {fileID: 114374867700689136, guid: 7d0bcfe5ecdb4e04a8dfabfc0bd1c32d,
    type: 2}
  m_PrefabInternal: {fileID: 1527947991}
  m_GameObject: {fileID: 171091874}
  m_Enabled: 1
  m_EditorHideFlags: 0
  m_Script: {fileID: -765806418, guid: f5f67c52d1564df4a8936ccd202a3bd8, type: 3}
  m_Name: 
  m_EditorClassIdentifier: 
  m_Material: {fileID: 0}
  m_Color: {r: 1, g: 1, b: 1, a: 1}
  m_RaycastTarget: 0
  m_OnCullStateChanged:
    m_PersistentCalls:
      m_Calls: []
    m_TypeName: UnityEngine.UI.MaskableGraphic+CullStateChangedEvent, UnityEngine.UI,
      Version=1.0.0.0, Culture=neutral, PublicKeyToken=null
  m_Sprite: {fileID: 10913, guid: 0000000000000000f000000000000000, type: 0}
  m_Type: 0
  m_PreserveAspect: 0
  m_FillCenter: 1
  m_FillMethod: 4
  m_FillAmount: 1
  m_FillClockwise: 1
  m_FillOrigin: 0
--- !u!222 &171091877
CanvasRenderer:
  m_ObjectHideFlags: 0
  m_PrefabParentObject: {fileID: 222765158383818494, guid: 7d0bcfe5ecdb4e04a8dfabfc0bd1c32d,
    type: 2}
  m_PrefabInternal: {fileID: 1527947991}
  m_GameObject: {fileID: 171091874}
--- !u!1 &310430190
GameObject:
  m_ObjectHideFlags: 0
  m_PrefabParentObject: {fileID: 1000013900380068, guid: 7d0bcfe5ecdb4e04a8dfabfc0bd1c32d,
    type: 2}
  m_PrefabInternal: {fileID: 1527947991}
  serializedVersion: 5
  m_Component:
  - component: {fileID: 310430192}
  - component: {fileID: 310430191}
  m_Layer: 0
  m_Name: FingersScriptPrefab
  m_TagString: Untagged
  m_Icon: {fileID: 0}
  m_NavMeshLayer: 0
  m_StaticEditorFlags: 0
  m_IsActive: 1
--- !u!114 &310430191
MonoBehaviour:
  m_ObjectHideFlags: 0
  m_PrefabParentObject: {fileID: 114000013960090368, guid: 7d0bcfe5ecdb4e04a8dfabfc0bd1c32d,
    type: 2}
  m_PrefabInternal: {fileID: 1527947991}
  m_GameObject: {fileID: 310430190}
  m_Enabled: 1
  m_EditorHideFlags: 0
  m_Script: {fileID: 11500000, guid: 08baa3d19a3754108af85534c7824251, type: 3}
  m_Name: 
  m_EditorClassIdentifier: 
  TreatMousePointerAsFinger: 1
  SimulateMouseWithTouches: 0
  PassThroughObjects: []
  ShowTouches: 1
  TouchCircles:
  - {fileID: 1868335146}
  - {fileID: 583375205}
  - {fileID: 157081270}
  - {fileID: 1479768567}
  - {fileID: 1046372678}
  - {fileID: 462820492}
  - {fileID: 820783685}
  - {fileID: 28108014}
  - {fileID: 32801571}
  - {fileID: 1868075309}
  - {fileID: 1883776817}
  - {fileID: 908513244}
  - {fileID: 313499064}
  - {fileID: 171091874}
  - {fileID: 1004519151}
  - {fileID: 407342428}
  - {fileID: 158482162}
  - {fileID: 1850471140}
  - {fileID: 929209120}
  - {fileID: 882161158}
  - {fileID: 1730158528}
  - {fileID: 340371255}
  - {fileID: 394436346}
  - {fileID: 1970590320}
  - {fileID: 890818654}
  - {fileID: 399676254}
  - {fileID: 2082723554}
  - {fileID: 749568037}
  - {fileID: 862073171}
  - {fileID: 119378152}
  - {fileID: 1937007951}
  - {fileID: 879238831}
  DefaultDPI: 200
  ClearGesturesOnLevelLoad: 1
--- !u!4 &310430192
Transform:
  m_ObjectHideFlags: 0
  m_PrefabParentObject: {fileID: 4000012487907716, guid: 7d0bcfe5ecdb4e04a8dfabfc0bd1c32d,
    type: 2}
  m_PrefabInternal: {fileID: 1527947991}
  m_GameObject: {fileID: 310430190}
  m_LocalRotation: {x: 0, y: 0, z: 0, w: 1}
  m_LocalPosition: {x: 0, y: 0, z: 0}
  m_LocalScale: {x: 1, y: 1, z: 1}
  m_Children:
  - {fileID: 1738172963}
  m_Father: {fileID: 0}
  m_RootOrder: 4
  m_LocalEulerAnglesHint: {x: 0, y: 0, z: 0}
--- !u!1 &313499064
GameObject:
  m_ObjectHideFlags: 0
  m_PrefabParentObject: {fileID: 1942106903640940, guid: 7d0bcfe5ecdb4e04a8dfabfc0bd1c32d,
    type: 2}
  m_PrefabInternal: {fileID: 1527947991}
  serializedVersion: 5
  m_Component:
  - component: {fileID: 313499065}
  - component: {fileID: 313499067}
  - component: {fileID: 313499066}
  m_Layer: 5
  m_Name: Touch13
  m_TagString: Untagged
  m_Icon: {fileID: 0}
  m_NavMeshLayer: 0
  m_StaticEditorFlags: 0
  m_IsActive: 0
--- !u!224 &313499065
RectTransform:
  m_ObjectHideFlags: 0
  m_PrefabParentObject: {fileID: 224540959138426646, guid: 7d0bcfe5ecdb4e04a8dfabfc0bd1c32d,
    type: 2}
  m_PrefabInternal: {fileID: 1527947991}
  m_GameObject: {fileID: 313499064}
  m_LocalRotation: {x: -0, y: -0, z: -0, w: 1}
  m_LocalPosition: {x: 0, y: 0, z: 0}
  m_LocalScale: {x: 1, y: 1, z: 1}
  m_Children: []
  m_Father: {fileID: 1731137534}
  m_RootOrder: 12
  m_LocalEulerAnglesHint: {x: 0, y: 0, z: 0}
  m_AnchorMin: {x: 0.5, y: 0.5}
  m_AnchorMax: {x: 0.5, y: 0.5}
  m_AnchoredPosition: {x: 0, y: 0}
  m_SizeDelta: {x: 20, y: 20}
  m_Pivot: {x: 0.5, y: 0.5}
--- !u!114 &313499066
MonoBehaviour:
  m_ObjectHideFlags: 0
  m_PrefabParentObject: {fileID: 114788268588377184, guid: 7d0bcfe5ecdb4e04a8dfabfc0bd1c32d,
    type: 2}
  m_PrefabInternal: {fileID: 1527947991}
  m_GameObject: {fileID: 313499064}
  m_Enabled: 1
  m_EditorHideFlags: 0
  m_Script: {fileID: -765806418, guid: f5f67c52d1564df4a8936ccd202a3bd8, type: 3}
  m_Name: 
  m_EditorClassIdentifier: 
  m_Material: {fileID: 0}
  m_Color: {r: 1, g: 1, b: 1, a: 1}
  m_RaycastTarget: 0
  m_OnCullStateChanged:
    m_PersistentCalls:
      m_Calls: []
    m_TypeName: UnityEngine.UI.MaskableGraphic+CullStateChangedEvent, UnityEngine.UI,
      Version=1.0.0.0, Culture=neutral, PublicKeyToken=null
  m_Sprite: {fileID: 10913, guid: 0000000000000000f000000000000000, type: 0}
  m_Type: 0
  m_PreserveAspect: 0
  m_FillCenter: 1
  m_FillMethod: 4
  m_FillAmount: 1
  m_FillClockwise: 1
  m_FillOrigin: 0
--- !u!222 &313499067
CanvasRenderer:
  m_ObjectHideFlags: 0
  m_PrefabParentObject: {fileID: 222252603900803776, guid: 7d0bcfe5ecdb4e04a8dfabfc0bd1c32d,
    type: 2}
  m_PrefabInternal: {fileID: 1527947991}
  m_GameObject: {fileID: 313499064}
--- !u!1 &340371255
GameObject:
  m_ObjectHideFlags: 0
  m_PrefabParentObject: {fileID: 1292691093323248, guid: 7d0bcfe5ecdb4e04a8dfabfc0bd1c32d,
    type: 2}
  m_PrefabInternal: {fileID: 1527947991}
  serializedVersion: 5
  m_Component:
  - component: {fileID: 340371256}
  - component: {fileID: 340371258}
  - component: {fileID: 340371257}
  m_Layer: 5
  m_Name: Touch22
  m_TagString: Untagged
  m_Icon: {fileID: 0}
  m_NavMeshLayer: 0
  m_StaticEditorFlags: 0
  m_IsActive: 0
--- !u!224 &340371256
RectTransform:
  m_ObjectHideFlags: 0
  m_PrefabParentObject: {fileID: 224165094899444448, guid: 7d0bcfe5ecdb4e04a8dfabfc0bd1c32d,
    type: 2}
  m_PrefabInternal: {fileID: 1527947991}
  m_GameObject: {fileID: 340371255}
  m_LocalRotation: {x: -0, y: -0, z: -0, w: 1}
  m_LocalPosition: {x: 0, y: 0, z: 0}
  m_LocalScale: {x: 1, y: 1, z: 1}
  m_Children: []
  m_Father: {fileID: 1731137534}
  m_RootOrder: 21
  m_LocalEulerAnglesHint: {x: 0, y: 0, z: 0}
  m_AnchorMin: {x: 0.5, y: 0.5}
  m_AnchorMax: {x: 0.5, y: 0.5}
  m_AnchoredPosition: {x: 0, y: 0}
  m_SizeDelta: {x: 20, y: 20}
  m_Pivot: {x: 0.5, y: 0.5}
--- !u!114 &340371257
MonoBehaviour:
  m_ObjectHideFlags: 0
  m_PrefabParentObject: {fileID: 114322013244549334, guid: 7d0bcfe5ecdb4e04a8dfabfc0bd1c32d,
    type: 2}
  m_PrefabInternal: {fileID: 1527947991}
  m_GameObject: {fileID: 340371255}
  m_Enabled: 1
  m_EditorHideFlags: 0
  m_Script: {fileID: -765806418, guid: f5f67c52d1564df4a8936ccd202a3bd8, type: 3}
  m_Name: 
  m_EditorClassIdentifier: 
  m_Material: {fileID: 0}
  m_Color: {r: 1, g: 1, b: 1, a: 1}
  m_RaycastTarget: 0
  m_OnCullStateChanged:
    m_PersistentCalls:
      m_Calls: []
    m_TypeName: UnityEngine.UI.MaskableGraphic+CullStateChangedEvent, UnityEngine.UI,
      Version=1.0.0.0, Culture=neutral, PublicKeyToken=null
  m_Sprite: {fileID: 10913, guid: 0000000000000000f000000000000000, type: 0}
  m_Type: 0
  m_PreserveAspect: 0
  m_FillCenter: 1
  m_FillMethod: 4
  m_FillAmount: 1
  m_FillClockwise: 1
  m_FillOrigin: 0
--- !u!222 &340371258
CanvasRenderer:
  m_ObjectHideFlags: 0
  m_PrefabParentObject: {fileID: 222746278659678916, guid: 7d0bcfe5ecdb4e04a8dfabfc0bd1c32d,
    type: 2}
  m_PrefabInternal: {fileID: 1527947991}
  m_GameObject: {fileID: 340371255}
--- !u!1 &394436346
GameObject:
  m_ObjectHideFlags: 0
  m_PrefabParentObject: {fileID: 1824261990652280, guid: 7d0bcfe5ecdb4e04a8dfabfc0bd1c32d,
    type: 2}
  m_PrefabInternal: {fileID: 1527947991}
  serializedVersion: 5
  m_Component:
  - component: {fileID: 394436347}
  - component: {fileID: 394436349}
  - component: {fileID: 394436348}
  m_Layer: 5
  m_Name: Touch23
  m_TagString: Untagged
  m_Icon: {fileID: 0}
  m_NavMeshLayer: 0
  m_StaticEditorFlags: 0
  m_IsActive: 0
--- !u!224 &394436347
RectTransform:
  m_ObjectHideFlags: 0
  m_PrefabParentObject: {fileID: 224369858792491532, guid: 7d0bcfe5ecdb4e04a8dfabfc0bd1c32d,
    type: 2}
  m_PrefabInternal: {fileID: 1527947991}
  m_GameObject: {fileID: 394436346}
  m_LocalRotation: {x: -0, y: -0, z: -0, w: 1}
  m_LocalPosition: {x: 0, y: 0, z: 0}
  m_LocalScale: {x: 1, y: 1, z: 1}
  m_Children: []
  m_Father: {fileID: 1731137534}
  m_RootOrder: 22
  m_LocalEulerAnglesHint: {x: 0, y: 0, z: 0}
  m_AnchorMin: {x: 0.5, y: 0.5}
  m_AnchorMax: {x: 0.5, y: 0.5}
  m_AnchoredPosition: {x: 0, y: 0}
  m_SizeDelta: {x: 20, y: 20}
  m_Pivot: {x: 0.5, y: 0.5}
--- !u!114 &394436348
MonoBehaviour:
  m_ObjectHideFlags: 0
  m_PrefabParentObject: {fileID: 114678998196572066, guid: 7d0bcfe5ecdb4e04a8dfabfc0bd1c32d,
    type: 2}
  m_PrefabInternal: {fileID: 1527947991}
  m_GameObject: {fileID: 394436346}
  m_Enabled: 1
  m_EditorHideFlags: 0
  m_Script: {fileID: -765806418, guid: f5f67c52d1564df4a8936ccd202a3bd8, type: 3}
  m_Name: 
  m_EditorClassIdentifier: 
  m_Material: {fileID: 0}
  m_Color: {r: 1, g: 1, b: 1, a: 1}
  m_RaycastTarget: 0
  m_OnCullStateChanged:
    m_PersistentCalls:
      m_Calls: []
    m_TypeName: UnityEngine.UI.MaskableGraphic+CullStateChangedEvent, UnityEngine.UI,
      Version=1.0.0.0, Culture=neutral, PublicKeyToken=null
  m_Sprite: {fileID: 10913, guid: 0000000000000000f000000000000000, type: 0}
  m_Type: 0
  m_PreserveAspect: 0
  m_FillCenter: 1
  m_FillMethod: 4
  m_FillAmount: 1
  m_FillClockwise: 1
  m_FillOrigin: 0
--- !u!222 &394436349
CanvasRenderer:
  m_ObjectHideFlags: 0
  m_PrefabParentObject: {fileID: 222505188791111254, guid: 7d0bcfe5ecdb4e04a8dfabfc0bd1c32d,
    type: 2}
  m_PrefabInternal: {fileID: 1527947991}
  m_GameObject: {fileID: 394436346}
--- !u!1 &399676254
GameObject:
  m_ObjectHideFlags: 0
  m_PrefabParentObject: {fileID: 1501599451267776, guid: 7d0bcfe5ecdb4e04a8dfabfc0bd1c32d,
    type: 2}
  m_PrefabInternal: {fileID: 1527947991}
  serializedVersion: 5
  m_Component:
  - component: {fileID: 399676255}
  - component: {fileID: 399676257}
  - component: {fileID: 399676256}
  m_Layer: 5
  m_Name: Touch26
  m_TagString: Untagged
  m_Icon: {fileID: 0}
  m_NavMeshLayer: 0
  m_StaticEditorFlags: 0
  m_IsActive: 0
--- !u!224 &399676255
RectTransform:
  m_ObjectHideFlags: 0
  m_PrefabParentObject: {fileID: 224501810027530438, guid: 7d0bcfe5ecdb4e04a8dfabfc0bd1c32d,
    type: 2}
  m_PrefabInternal: {fileID: 1527947991}
  m_GameObject: {fileID: 399676254}
  m_LocalRotation: {x: -0, y: -0, z: -0, w: 1}
  m_LocalPosition: {x: 0, y: 0, z: 0}
  m_LocalScale: {x: 1, y: 1, z: 1}
  m_Children: []
  m_Father: {fileID: 1731137534}
  m_RootOrder: 25
  m_LocalEulerAnglesHint: {x: 0, y: 0, z: 0}
  m_AnchorMin: {x: 0.5, y: 0.5}
  m_AnchorMax: {x: 0.5, y: 0.5}
  m_AnchoredPosition: {x: 0, y: 0}
  m_SizeDelta: {x: 20, y: 20}
  m_Pivot: {x: 0.5, y: 0.5}
--- !u!114 &399676256
MonoBehaviour:
  m_ObjectHideFlags: 0
  m_PrefabParentObject: {fileID: 114211672959205476, guid: 7d0bcfe5ecdb4e04a8dfabfc0bd1c32d,
    type: 2}
  m_PrefabInternal: {fileID: 1527947991}
  m_GameObject: {fileID: 399676254}
  m_Enabled: 1
  m_EditorHideFlags: 0
  m_Script: {fileID: -765806418, guid: f5f67c52d1564df4a8936ccd202a3bd8, type: 3}
  m_Name: 
  m_EditorClassIdentifier: 
  m_Material: {fileID: 0}
  m_Color: {r: 1, g: 1, b: 1, a: 1}
  m_RaycastTarget: 0
  m_OnCullStateChanged:
    m_PersistentCalls:
      m_Calls: []
    m_TypeName: UnityEngine.UI.MaskableGraphic+CullStateChangedEvent, UnityEngine.UI,
      Version=1.0.0.0, Culture=neutral, PublicKeyToken=null
  m_Sprite: {fileID: 10913, guid: 0000000000000000f000000000000000, type: 0}
  m_Type: 0
  m_PreserveAspect: 0
  m_FillCenter: 1
  m_FillMethod: 4
  m_FillAmount: 1
  m_FillClockwise: 1
  m_FillOrigin: 0
--- !u!222 &399676257
CanvasRenderer:
  m_ObjectHideFlags: 0
  m_PrefabParentObject: {fileID: 222864762285911862, guid: 7d0bcfe5ecdb4e04a8dfabfc0bd1c32d,
    type: 2}
  m_PrefabInternal: {fileID: 1527947991}
  m_GameObject: {fileID: 399676254}
--- !u!1 &407342428
GameObject:
  m_ObjectHideFlags: 0
  m_PrefabParentObject: {fileID: 1735259813805408, guid: 7d0bcfe5ecdb4e04a8dfabfc0bd1c32d,
    type: 2}
  m_PrefabInternal: {fileID: 1527947991}
  serializedVersion: 5
  m_Component:
  - component: {fileID: 407342429}
  - component: {fileID: 407342431}
  - component: {fileID: 407342430}
  m_Layer: 5
  m_Name: Touch16
  m_TagString: Untagged
  m_Icon: {fileID: 0}
  m_NavMeshLayer: 0
  m_StaticEditorFlags: 0
  m_IsActive: 0
--- !u!224 &407342429
RectTransform:
  m_ObjectHideFlags: 0
  m_PrefabParentObject: {fileID: 224395192700585074, guid: 7d0bcfe5ecdb4e04a8dfabfc0bd1c32d,
    type: 2}
  m_PrefabInternal: {fileID: 1527947991}
  m_GameObject: {fileID: 407342428}
  m_LocalRotation: {x: -0, y: -0, z: -0, w: 1}
  m_LocalPosition: {x: 0, y: 0, z: 0}
  m_LocalScale: {x: 1, y: 1, z: 1}
  m_Children: []
  m_Father: {fileID: 1731137534}
  m_RootOrder: 15
  m_LocalEulerAnglesHint: {x: 0, y: 0, z: 0}
  m_AnchorMin: {x: 0.5, y: 0.5}
  m_AnchorMax: {x: 0.5, y: 0.5}
  m_AnchoredPosition: {x: 0, y: 0}
  m_SizeDelta: {x: 20, y: 20}
  m_Pivot: {x: 0.5, y: 0.5}
--- !u!114 &407342430
MonoBehaviour:
  m_ObjectHideFlags: 0
  m_PrefabParentObject: {fileID: 114900185808978318, guid: 7d0bcfe5ecdb4e04a8dfabfc0bd1c32d,
    type: 2}
  m_PrefabInternal: {fileID: 1527947991}
  m_GameObject: {fileID: 407342428}
  m_Enabled: 1
  m_EditorHideFlags: 0
  m_Script: {fileID: -765806418, guid: f5f67c52d1564df4a8936ccd202a3bd8, type: 3}
  m_Name: 
  m_EditorClassIdentifier: 
  m_Material: {fileID: 0}
  m_Color: {r: 1, g: 1, b: 1, a: 1}
  m_RaycastTarget: 0
  m_OnCullStateChanged:
    m_PersistentCalls:
      m_Calls: []
    m_TypeName: UnityEngine.UI.MaskableGraphic+CullStateChangedEvent, UnityEngine.UI,
      Version=1.0.0.0, Culture=neutral, PublicKeyToken=null
  m_Sprite: {fileID: 10913, guid: 0000000000000000f000000000000000, type: 0}
  m_Type: 0
  m_PreserveAspect: 0
  m_FillCenter: 1
  m_FillMethod: 4
  m_FillAmount: 1
  m_FillClockwise: 1
  m_FillOrigin: 0
--- !u!222 &407342431
CanvasRenderer:
  m_ObjectHideFlags: 0
  m_PrefabParentObject: {fileID: 222880520083963622, guid: 7d0bcfe5ecdb4e04a8dfabfc0bd1c32d,
    type: 2}
  m_PrefabInternal: {fileID: 1527947991}
  m_GameObject: {fileID: 407342428}
--- !u!1 &411618397
GameObject:
  m_ObjectHideFlags: 0
  m_PrefabParentObject: {fileID: 0}
  m_PrefabInternal: {fileID: 0}
  serializedVersion: 5
  m_Component:
  - component: {fileID: 411618401}
  - component: {fileID: 411618400}
  - component: {fileID: 411618399}
  - component: {fileID: 411618398}
  m_Layer: 0
  m_Name: Ground
  m_TagString: Untagged
  m_Icon: {fileID: 0}
  m_NavMeshLayer: 0
  m_StaticEditorFlags: 0
  m_IsActive: 1
--- !u!23 &411618398
MeshRenderer:
  m_ObjectHideFlags: 0
  m_PrefabParentObject: {fileID: 0}
  m_PrefabInternal: {fileID: 0}
  m_GameObject: {fileID: 411618397}
  m_Enabled: 1
  m_CastShadows: 1
  m_ReceiveShadows: 1
  m_DynamicOccludee: 1
  m_MotionVectors: 1
  m_LightProbeUsage: 1
  m_ReflectionProbeUsage: 1
  m_Materials:
  - {fileID: 2100000, guid: ce993460abaf7d34cbde7edb913ab023, type: 2}
  m_StaticBatchInfo:
    firstSubMesh: 0
    subMeshCount: 0
  m_StaticBatchRoot: {fileID: 0}
  m_ProbeAnchor: {fileID: 0}
  m_LightProbeVolumeOverride: {fileID: 0}
  m_ScaleInLightmap: 1
  m_PreserveUVs: 1
  m_IgnoreNormalsForChartDetection: 0
  m_ImportantGI: 0
  m_StitchLightmapSeams: 0
  m_SelectedEditorRenderState: 3
  m_MinimumChartSize: 4
  m_AutoUVMaxDistance: 0.5
  m_AutoUVMaxAngle: 89
  m_LightmapParameters: {fileID: 0}
  m_SortingLayerID: 0
  m_SortingLayer: 0
  m_SortingOrder: 0
--- !u!64 &411618399
MeshCollider:
  m_ObjectHideFlags: 0
  m_PrefabParentObject: {fileID: 0}
  m_PrefabInternal: {fileID: 0}
  m_GameObject: {fileID: 411618397}
  m_Material: {fileID: 0}
  m_IsTrigger: 0
  m_Enabled: 1
  serializedVersion: 3
  m_Convex: 0
  m_CookingOptions: 14
  m_SkinWidth: 0.01
  m_Mesh: {fileID: 10209, guid: 0000000000000000e000000000000000, type: 0}
--- !u!33 &411618400
MeshFilter:
  m_ObjectHideFlags: 0
  m_PrefabParentObject: {fileID: 0}
  m_PrefabInternal: {fileID: 0}
  m_GameObject: {fileID: 411618397}
  m_Mesh: {fileID: 10209, guid: 0000000000000000e000000000000000, type: 0}
--- !u!4 &411618401
Transform:
  m_ObjectHideFlags: 0
  m_PrefabParentObject: {fileID: 0}
  m_PrefabInternal: {fileID: 0}
  m_GameObject: {fileID: 411618397}
  m_LocalRotation: {x: 0, y: 0, z: 0, w: 1}
  m_LocalPosition: {x: 0, y: 0, z: 0}
  m_LocalScale: {x: 8, y: 1, z: 8}
  m_Children: []
  m_Father: {fileID: 0}
  m_RootOrder: 2
  m_LocalEulerAnglesHint: {x: 0, y: 0, z: 0}
--- !u!1 &427787595
GameObject:
  m_ObjectHideFlags: 0
  m_PrefabParentObject: {fileID: 0}
  m_PrefabInternal: {fileID: 0}
  serializedVersion: 5
  m_Component:
  - component: {fileID: 427787600}
  - component: {fileID: 427787599}
  - component: {fileID: 427787598}
  - component: {fileID: 427787597}
  - component: {fileID: 427787596}
  - component: {fileID: 427787601}
  m_Layer: 0
  m_Name: Main Camera
  m_TagString: MainCamera
  m_Icon: {fileID: 0}
  m_NavMeshLayer: 0
  m_StaticEditorFlags: 0
  m_IsActive: 1
--- !u!81 &427787596
AudioListener:
  m_ObjectHideFlags: 0
  m_PrefabParentObject: {fileID: 0}
  m_PrefabInternal: {fileID: 0}
  m_GameObject: {fileID: 427787595}
  m_Enabled: 1
--- !u!124 &427787597
Behaviour:
  m_ObjectHideFlags: 0
  m_PrefabParentObject: {fileID: 0}
  m_PrefabInternal: {fileID: 0}
  m_GameObject: {fileID: 427787595}
  m_Enabled: 1
--- !u!92 &427787598
Behaviour:
  m_ObjectHideFlags: 0
  m_PrefabParentObject: {fileID: 0}
  m_PrefabInternal: {fileID: 0}
  m_GameObject: {fileID: 427787595}
  m_Enabled: 1
--- !u!20 &427787599
Camera:
  m_ObjectHideFlags: 0
  m_PrefabParentObject: {fileID: 0}
  m_PrefabInternal: {fileID: 0}
  m_GameObject: {fileID: 427787595}
  m_Enabled: 1
  serializedVersion: 2
  m_ClearFlags: 1
  m_BackGroundColor: {r: 0.19215687, g: 0.3019608, b: 0.4745098, a: 0}
  m_NormalizedViewPortRect:
    serializedVersion: 2
    x: 0
    y: 0
    width: 1
    height: 1
  near clip plane: 0.3
  far clip plane: 1000
  field of view: 60
  orthographic: 0
  orthographic size: 5
  m_Depth: -1
  m_CullingMask:
    serializedVersion: 2
    m_Bits: 4294967295
  m_RenderingPath: -1
  m_TargetTexture: {fileID: 0}
  m_TargetDisplay: 0
  m_TargetEye: 3
  m_HDR: 1
  m_AllowMSAA: 1
  m_AllowDynamicResolution: 0
  m_ForceIntoRT: 0
  m_OcclusionCulling: 1
  m_StereoConvergence: 10
  m_StereoSeparation: 0.022
--- !u!4 &427787600
Transform:
  m_ObjectHideFlags: 0
  m_PrefabParentObject: {fileID: 0}
  m_PrefabInternal: {fileID: 0}
  m_GameObject: {fileID: 427787595}
  m_LocalRotation: {x: 0, y: 0, z: 0, w: 1}
  m_LocalPosition: {x: 0, y: 4, z: -10}
  m_LocalScale: {x: 1, y: 1, z: 1}
  m_Children: []
  m_Father: {fileID: 0}
  m_RootOrder: 0
  m_LocalEulerAnglesHint: {x: 0, y: 0, z: 0}
--- !u!114 &427787601
MonoBehaviour:
  m_ObjectHideFlags: 0
  m_PrefabParentObject: {fileID: 0}
  m_PrefabInternal: {fileID: 0}
  m_GameObject: {fileID: 427787595}
  m_Enabled: 1
  m_EditorHideFlags: 0
  m_Script: {fileID: 11500000, guid: b787641395ab476418b5f63f5839881f, type: 3}
  m_Name: 
  m_EditorClassIdentifier: 
  OrbitTarget: {fileID: 1195391105}
  Orbiter: {fileID: 427787600}
  Axis: {x: 0, y: 1, z: 0}
  RotationSpeed: 500
--- !u!1 &462820492
GameObject:
  m_ObjectHideFlags: 0
  m_PrefabParentObject: {fileID: 1000011762144310, guid: 7d0bcfe5ecdb4e04a8dfabfc0bd1c32d,
    type: 2}
  m_PrefabInternal: {fileID: 1527947991}
  serializedVersion: 5
  m_Component:
  - component: {fileID: 462820493}
  - component: {fileID: 462820495}
  - component: {fileID: 462820494}
  m_Layer: 5
  m_Name: Touch6
  m_TagString: Untagged
  m_Icon: {fileID: 0}
  m_NavMeshLayer: 0
  m_StaticEditorFlags: 0
  m_IsActive: 0
--- !u!224 &462820493
RectTransform:
  m_ObjectHideFlags: 0
  m_PrefabParentObject: {fileID: 224000011376059516, guid: 7d0bcfe5ecdb4e04a8dfabfc0bd1c32d,
    type: 2}
  m_PrefabInternal: {fileID: 1527947991}
  m_GameObject: {fileID: 462820492}
  m_LocalRotation: {x: 0, y: 0, z: 0, w: 1}
  m_LocalPosition: {x: 0, y: 0, z: 0}
  m_LocalScale: {x: 1, y: 1, z: 1}
  m_Children: []
  m_Father: {fileID: 1731137534}
  m_RootOrder: 5
  m_LocalEulerAnglesHint: {x: 0, y: 0, z: 0}
  m_AnchorMin: {x: 0.5, y: 0.5}
  m_AnchorMax: {x: 0.5, y: 0.5}
  m_AnchoredPosition: {x: 0, y: 0}
  m_SizeDelta: {x: 20, y: 20}
  m_Pivot: {x: 0.5, y: 0.5}
--- !u!114 &462820494
MonoBehaviour:
  m_ObjectHideFlags: 0
  m_PrefabParentObject: {fileID: 114000012094595942, guid: 7d0bcfe5ecdb4e04a8dfabfc0bd1c32d,
    type: 2}
  m_PrefabInternal: {fileID: 1527947991}
  m_GameObject: {fileID: 462820492}
  m_Enabled: 1
  m_EditorHideFlags: 0
  m_Script: {fileID: -765806418, guid: f5f67c52d1564df4a8936ccd202a3bd8, type: 3}
  m_Name: 
  m_EditorClassIdentifier: 
  m_Material: {fileID: 0}
  m_Color: {r: 1, g: 1, b: 1, a: 1}
  m_RaycastTarget: 0
  m_OnCullStateChanged:
    m_PersistentCalls:
      m_Calls: []
    m_TypeName: UnityEngine.UI.MaskableGraphic+CullStateChangedEvent, UnityEngine.UI,
      Version=1.0.0.0, Culture=neutral, PublicKeyToken=null
  m_Sprite: {fileID: 10913, guid: 0000000000000000f000000000000000, type: 0}
  m_Type: 0
  m_PreserveAspect: 0
  m_FillCenter: 1
  m_FillMethod: 4
  m_FillAmount: 1
  m_FillClockwise: 1
  m_FillOrigin: 0
--- !u!222 &462820495
CanvasRenderer:
  m_ObjectHideFlags: 0
  m_PrefabParentObject: {fileID: 222000011638891570, guid: 7d0bcfe5ecdb4e04a8dfabfc0bd1c32d,
    type: 2}
  m_PrefabInternal: {fileID: 1527947991}
  m_GameObject: {fileID: 462820492}
--- !u!1 &583375205
GameObject:
  m_ObjectHideFlags: 0
  m_PrefabParentObject: {fileID: 1000011353581076, guid: 7d0bcfe5ecdb4e04a8dfabfc0bd1c32d,
    type: 2}
  m_PrefabInternal: {fileID: 1527947991}
  serializedVersion: 5
  m_Component:
  - component: {fileID: 583375206}
  - component: {fileID: 583375208}
  - component: {fileID: 583375207}
  m_Layer: 5
  m_Name: Touch2
  m_TagString: Untagged
  m_Icon: {fileID: 0}
  m_NavMeshLayer: 0
  m_StaticEditorFlags: 0
  m_IsActive: 0
--- !u!224 &583375206
RectTransform:
  m_ObjectHideFlags: 0
  m_PrefabParentObject: {fileID: 224000011873980760, guid: 7d0bcfe5ecdb4e04a8dfabfc0bd1c32d,
    type: 2}
  m_PrefabInternal: {fileID: 1527947991}
  m_GameObject: {fileID: 583375205}
  m_LocalRotation: {x: 0, y: 0, z: 0, w: 1}
  m_LocalPosition: {x: 0, y: 0, z: 0}
  m_LocalScale: {x: 1, y: 1, z: 1}
  m_Children: []
  m_Father: {fileID: 1731137534}
  m_RootOrder: 1
  m_LocalEulerAnglesHint: {x: 0, y: 0, z: 0}
  m_AnchorMin: {x: 0.5, y: 0.5}
  m_AnchorMax: {x: 0.5, y: 0.5}
  m_AnchoredPosition: {x: 0, y: 0}
  m_SizeDelta: {x: 20, y: 20}
  m_Pivot: {x: 0.5, y: 0.5}
--- !u!114 &583375207
MonoBehaviour:
  m_ObjectHideFlags: 0
  m_PrefabParentObject: {fileID: 114000011206381842, guid: 7d0bcfe5ecdb4e04a8dfabfc0bd1c32d,
    type: 2}
  m_PrefabInternal: {fileID: 1527947991}
  m_GameObject: {fileID: 583375205}
  m_Enabled: 1
  m_EditorHideFlags: 0
  m_Script: {fileID: -765806418, guid: f5f67c52d1564df4a8936ccd202a3bd8, type: 3}
  m_Name: 
  m_EditorClassIdentifier: 
  m_Material: {fileID: 0}
  m_Color: {r: 1, g: 1, b: 1, a: 1}
  m_RaycastTarget: 0
  m_OnCullStateChanged:
    m_PersistentCalls:
      m_Calls: []
    m_TypeName: UnityEngine.UI.MaskableGraphic+CullStateChangedEvent, UnityEngine.UI,
      Version=1.0.0.0, Culture=neutral, PublicKeyToken=null
  m_Sprite: {fileID: 10913, guid: 0000000000000000f000000000000000, type: 0}
  m_Type: 0
  m_PreserveAspect: 0
  m_FillCenter: 1
  m_FillMethod: 4
  m_FillAmount: 1
  m_FillClockwise: 1
  m_FillOrigin: 0
--- !u!222 &583375208
CanvasRenderer:
  m_ObjectHideFlags: 0
  m_PrefabParentObject: {fileID: 222000011349433140, guid: 7d0bcfe5ecdb4e04a8dfabfc0bd1c32d,
    type: 2}
  m_PrefabInternal: {fileID: 1527947991}
  m_GameObject: {fileID: 583375205}
--- !u!1 &615633998
GameObject:
  m_ObjectHideFlags: 0
  m_PrefabParentObject: {fileID: 0}
  m_PrefabInternal: {fileID: 0}
  serializedVersion: 5
  m_Component:
  - component: {fileID: 615633999}
  - component: {fileID: 615634001}
  - component: {fileID: 615634000}
  m_Layer: 0
  m_Name: EventSystem
  m_TagString: Untagged
  m_Icon: {fileID: 0}
  m_NavMeshLayer: 0
  m_StaticEditorFlags: 0
  m_IsActive: 1
--- !u!4 &615633999
Transform:
  m_ObjectHideFlags: 0
  m_PrefabParentObject: {fileID: 0}
  m_PrefabInternal: {fileID: 0}
  m_GameObject: {fileID: 615633998}
  m_LocalRotation: {x: -0, y: -0, z: -0, w: 1}
  m_LocalPosition: {x: -567.5, y: -342.5, z: 0}
  m_LocalScale: {x: 1, y: 1, z: 1}
  m_Children: []
  m_Father: {fileID: 1856318171}
  m_RootOrder: 1
  m_LocalEulerAnglesHint: {x: 0, y: 0, z: 0}
--- !u!114 &615634000
MonoBehaviour:
  m_ObjectHideFlags: 0
  m_PrefabParentObject: {fileID: 0}
  m_PrefabInternal: {fileID: 0}
  m_GameObject: {fileID: 615633998}
  m_Enabled: 1
  m_EditorHideFlags: 0
  m_Script: {fileID: 1077351063, guid: f70555f144d8491a825f0804e09c671c, type: 3}
  m_Name: 
  m_EditorClassIdentifier: 
  m_HorizontalAxis: Horizontal
  m_VerticalAxis: Vertical
  m_SubmitButton: Submit
  m_CancelButton: Cancel
  m_InputActionsPerSecond: 10
  m_RepeatDelay: 0.5
  m_ForceModuleActive: 0
--- !u!114 &615634001
MonoBehaviour:
  m_ObjectHideFlags: 0
  m_PrefabParentObject: {fileID: 0}
  m_PrefabInternal: {fileID: 0}
  m_GameObject: {fileID: 615633998}
  m_Enabled: 1
  m_EditorHideFlags: 0
  m_Script: {fileID: -619905303, guid: f70555f144d8491a825f0804e09c671c, type: 3}
  m_Name: 
  m_EditorClassIdentifier: 
  m_FirstSelected: {fileID: 0}
  m_sendNavigationEvents: 1
  m_DragThreshold: 5
--- !u!1 &749568037
GameObject:
  m_ObjectHideFlags: 0
  m_PrefabParentObject: {fileID: 1238020627700958, guid: 7d0bcfe5ecdb4e04a8dfabfc0bd1c32d,
    type: 2}
  m_PrefabInternal: {fileID: 1527947991}
  serializedVersion: 5
  m_Component:
  - component: {fileID: 749568038}
  - component: {fileID: 749568040}
  - component: {fileID: 749568039}
  m_Layer: 5
  m_Name: Touch28
  m_TagString: Untagged
  m_Icon: {fileID: 0}
  m_NavMeshLayer: 0
  m_StaticEditorFlags: 0
  m_IsActive: 0
--- !u!224 &749568038
RectTransform:
  m_ObjectHideFlags: 0
  m_PrefabParentObject: {fileID: 224367124732616234, guid: 7d0bcfe5ecdb4e04a8dfabfc0bd1c32d,
    type: 2}
  m_PrefabInternal: {fileID: 1527947991}
  m_GameObject: {fileID: 749568037}
  m_LocalRotation: {x: -0, y: -0, z: -0, w: 1}
  m_LocalPosition: {x: 0, y: 0, z: 0}
  m_LocalScale: {x: 1, y: 1, z: 1}
  m_Children: []
  m_Father: {fileID: 1731137534}
  m_RootOrder: 27
  m_LocalEulerAnglesHint: {x: 0, y: 0, z: 0}
  m_AnchorMin: {x: 0.5, y: 0.5}
  m_AnchorMax: {x: 0.5, y: 0.5}
  m_AnchoredPosition: {x: 0, y: 0}
  m_SizeDelta: {x: 20, y: 20}
  m_Pivot: {x: 0.5, y: 0.5}
--- !u!114 &749568039
MonoBehaviour:
  m_ObjectHideFlags: 0
  m_PrefabParentObject: {fileID: 114028366874838480, guid: 7d0bcfe5ecdb4e04a8dfabfc0bd1c32d,
    type: 2}
  m_PrefabInternal: {fileID: 1527947991}
  m_GameObject: {fileID: 749568037}
  m_Enabled: 1
  m_EditorHideFlags: 0
  m_Script: {fileID: -765806418, guid: f5f67c52d1564df4a8936ccd202a3bd8, type: 3}
  m_Name: 
  m_EditorClassIdentifier: 
  m_Material: {fileID: 0}
  m_Color: {r: 1, g: 1, b: 1, a: 1}
  m_RaycastTarget: 0
  m_OnCullStateChanged:
    m_PersistentCalls:
      m_Calls: []
    m_TypeName: UnityEngine.UI.MaskableGraphic+CullStateChangedEvent, UnityEngine.UI,
      Version=1.0.0.0, Culture=neutral, PublicKeyToken=null
  m_Sprite: {fileID: 10913, guid: 0000000000000000f000000000000000, type: 0}
  m_Type: 0
  m_PreserveAspect: 0
  m_FillCenter: 1
  m_FillMethod: 4
  m_FillAmount: 1
  m_FillClockwise: 1
  m_FillOrigin: 0
--- !u!222 &749568040
CanvasRenderer:
  m_ObjectHideFlags: 0
  m_PrefabParentObject: {fileID: 222929798694184354, guid: 7d0bcfe5ecdb4e04a8dfabfc0bd1c32d,
    type: 2}
  m_PrefabInternal: {fileID: 1527947991}
  m_GameObject: {fileID: 749568037}
--- !u!1 &820783685
GameObject:
  m_ObjectHideFlags: 0
  m_PrefabParentObject: {fileID: 1000011017172634, guid: 7d0bcfe5ecdb4e04a8dfabfc0bd1c32d,
    type: 2}
  m_PrefabInternal: {fileID: 1527947991}
  serializedVersion: 5
  m_Component:
  - component: {fileID: 820783686}
  - component: {fileID: 820783688}
  - component: {fileID: 820783687}
  m_Layer: 5
  m_Name: Touch7
  m_TagString: Untagged
  m_Icon: {fileID: 0}
  m_NavMeshLayer: 0
  m_StaticEditorFlags: 0
  m_IsActive: 0
--- !u!224 &820783686
RectTransform:
  m_ObjectHideFlags: 0
  m_PrefabParentObject: {fileID: 224000013004518824, guid: 7d0bcfe5ecdb4e04a8dfabfc0bd1c32d,
    type: 2}
  m_PrefabInternal: {fileID: 1527947991}
  m_GameObject: {fileID: 820783685}
  m_LocalRotation: {x: 0, y: 0, z: 0, w: 1}
  m_LocalPosition: {x: 0, y: 0, z: 0}
  m_LocalScale: {x: 1, y: 1, z: 1}
  m_Children: []
  m_Father: {fileID: 1731137534}
  m_RootOrder: 6
  m_LocalEulerAnglesHint: {x: 0, y: 0, z: 0}
  m_AnchorMin: {x: 0.5, y: 0.5}
  m_AnchorMax: {x: 0.5, y: 0.5}
  m_AnchoredPosition: {x: 0, y: 0}
  m_SizeDelta: {x: 20, y: 20}
  m_Pivot: {x: 0.5, y: 0.5}
--- !u!114 &820783687
MonoBehaviour:
  m_ObjectHideFlags: 0
  m_PrefabParentObject: {fileID: 114000013206150578, guid: 7d0bcfe5ecdb4e04a8dfabfc0bd1c32d,
    type: 2}
  m_PrefabInternal: {fileID: 1527947991}
  m_GameObject: {fileID: 820783685}
  m_Enabled: 1
  m_EditorHideFlags: 0
  m_Script: {fileID: -765806418, guid: f5f67c52d1564df4a8936ccd202a3bd8, type: 3}
  m_Name: 
  m_EditorClassIdentifier: 
  m_Material: {fileID: 0}
  m_Color: {r: 1, g: 1, b: 1, a: 1}
  m_RaycastTarget: 0
  m_OnCullStateChanged:
    m_PersistentCalls:
      m_Calls: []
    m_TypeName: UnityEngine.UI.MaskableGraphic+CullStateChangedEvent, UnityEngine.UI,
      Version=1.0.0.0, Culture=neutral, PublicKeyToken=null
  m_Sprite: {fileID: 10913, guid: 0000000000000000f000000000000000, type: 0}
  m_Type: 0
  m_PreserveAspect: 0
  m_FillCenter: 1
  m_FillMethod: 4
  m_FillAmount: 1
  m_FillClockwise: 1
  m_FillOrigin: 0
--- !u!222 &820783688
CanvasRenderer:
  m_ObjectHideFlags: 0
  m_PrefabParentObject: {fileID: 222000011276017982, guid: 7d0bcfe5ecdb4e04a8dfabfc0bd1c32d,
    type: 2}
  m_PrefabInternal: {fileID: 1527947991}
  m_GameObject: {fileID: 820783685}
--- !u!1 &862073171
GameObject:
  m_ObjectHideFlags: 0
  m_PrefabParentObject: {fileID: 1913129423762184, guid: 7d0bcfe5ecdb4e04a8dfabfc0bd1c32d,
    type: 2}
  m_PrefabInternal: {fileID: 1527947991}
  serializedVersion: 5
  m_Component:
  - component: {fileID: 862073172}
  - component: {fileID: 862073174}
  - component: {fileID: 862073173}
  m_Layer: 5
  m_Name: Touch29
  m_TagString: Untagged
  m_Icon: {fileID: 0}
  m_NavMeshLayer: 0
  m_StaticEditorFlags: 0
  m_IsActive: 0
--- !u!224 &862073172
RectTransform:
  m_ObjectHideFlags: 0
  m_PrefabParentObject: {fileID: 224843288848876054, guid: 7d0bcfe5ecdb4e04a8dfabfc0bd1c32d,
    type: 2}
  m_PrefabInternal: {fileID: 1527947991}
  m_GameObject: {fileID: 862073171}
  m_LocalRotation: {x: -0, y: -0, z: -0, w: 1}
  m_LocalPosition: {x: 0, y: 0, z: 0}
  m_LocalScale: {x: 1, y: 1, z: 1}
  m_Children: []
  m_Father: {fileID: 1731137534}
  m_RootOrder: 28
  m_LocalEulerAnglesHint: {x: 0, y: 0, z: 0}
  m_AnchorMin: {x: 0.5, y: 0.5}
  m_AnchorMax: {x: 0.5, y: 0.5}
  m_AnchoredPosition: {x: 0, y: 0}
  m_SizeDelta: {x: 20, y: 20}
  m_Pivot: {x: 0.5, y: 0.5}
--- !u!114 &862073173
MonoBehaviour:
  m_ObjectHideFlags: 0
  m_PrefabParentObject: {fileID: 114498429765527960, guid: 7d0bcfe5ecdb4e04a8dfabfc0bd1c32d,
    type: 2}
  m_PrefabInternal: {fileID: 1527947991}
  m_GameObject: {fileID: 862073171}
  m_Enabled: 1
  m_EditorHideFlags: 0
  m_Script: {fileID: -765806418, guid: f5f67c52d1564df4a8936ccd202a3bd8, type: 3}
  m_Name: 
  m_EditorClassIdentifier: 
  m_Material: {fileID: 0}
  m_Color: {r: 1, g: 1, b: 1, a: 1}
  m_RaycastTarget: 0
  m_OnCullStateChanged:
    m_PersistentCalls:
      m_Calls: []
    m_TypeName: UnityEngine.UI.MaskableGraphic+CullStateChangedEvent, UnityEngine.UI,
      Version=1.0.0.0, Culture=neutral, PublicKeyToken=null
  m_Sprite: {fileID: 10913, guid: 0000000000000000f000000000000000, type: 0}
  m_Type: 0
  m_PreserveAspect: 0
  m_FillCenter: 1
  m_FillMethod: 4
  m_FillAmount: 1
  m_FillClockwise: 1
  m_FillOrigin: 0
--- !u!222 &862073174
CanvasRenderer:
  m_ObjectHideFlags: 0
  m_PrefabParentObject: {fileID: 222742667467815954, guid: 7d0bcfe5ecdb4e04a8dfabfc0bd1c32d,
    type: 2}
  m_PrefabInternal: {fileID: 1527947991}
  m_GameObject: {fileID: 862073171}
--- !u!1 &879238831
GameObject:
  m_ObjectHideFlags: 0
  m_PrefabParentObject: {fileID: 1000013507895420, guid: 7d0bcfe5ecdb4e04a8dfabfc0bd1c32d,
    type: 2}
  m_PrefabInternal: {fileID: 1527947991}
  serializedVersion: 5
  m_Component:
  - component: {fileID: 879238834}
  - component: {fileID: 879238833}
  - component: {fileID: 879238832}
  m_Layer: 5
  m_Name: Touch32
  m_TagString: Untagged
  m_Icon: {fileID: 0}
  m_NavMeshLayer: 0
  m_StaticEditorFlags: 0
  m_IsActive: 0
--- !u!114 &879238832
MonoBehaviour:
  m_ObjectHideFlags: 0
  m_PrefabParentObject: {fileID: 114000011432543524, guid: 7d0bcfe5ecdb4e04a8dfabfc0bd1c32d,
    type: 2}
  m_PrefabInternal: {fileID: 1527947991}
  m_GameObject: {fileID: 879238831}
  m_Enabled: 1
  m_EditorHideFlags: 0
  m_Script: {fileID: -765806418, guid: f5f67c52d1564df4a8936ccd202a3bd8, type: 3}
  m_Name: 
  m_EditorClassIdentifier: 
  m_Material: {fileID: 0}
  m_Color: {r: 1, g: 1, b: 1, a: 1}
  m_RaycastTarget: 0
  m_OnCullStateChanged:
    m_PersistentCalls:
      m_Calls: []
    m_TypeName: UnityEngine.UI.MaskableGraphic+CullStateChangedEvent, UnityEngine.UI,
      Version=1.0.0.0, Culture=neutral, PublicKeyToken=null
  m_Sprite: {fileID: 10913, guid: 0000000000000000f000000000000000, type: 0}
  m_Type: 0
  m_PreserveAspect: 0
  m_FillCenter: 1
  m_FillMethod: 4
  m_FillAmount: 1
  m_FillClockwise: 1
  m_FillOrigin: 0
--- !u!222 &879238833
CanvasRenderer:
  m_ObjectHideFlags: 0
  m_PrefabParentObject: {fileID: 222000012098613226, guid: 7d0bcfe5ecdb4e04a8dfabfc0bd1c32d,
    type: 2}
  m_PrefabInternal: {fileID: 1527947991}
  m_GameObject: {fileID: 879238831}
--- !u!224 &879238834
RectTransform:
  m_ObjectHideFlags: 0
  m_PrefabParentObject: {fileID: 224000011793421298, guid: 7d0bcfe5ecdb4e04a8dfabfc0bd1c32d,
    type: 2}
  m_PrefabInternal: {fileID: 1527947991}
  m_GameObject: {fileID: 879238831}
  m_LocalRotation: {x: -0, y: -0, z: -0, w: 1}
  m_LocalPosition: {x: 0, y: 0, z: 0}
  m_LocalScale: {x: 1, y: 1, z: 1}
  m_Children: []
  m_Father: {fileID: 1731137534}
  m_RootOrder: 31
  m_LocalEulerAnglesHint: {x: 0, y: 0, z: 0}
  m_AnchorMin: {x: 0.5, y: 0.5}
  m_AnchorMax: {x: 0.5, y: 0.5}
  m_AnchoredPosition: {x: 0, y: 0}
  m_SizeDelta: {x: 20, y: 20}
  m_Pivot: {x: 0.5, y: 0.5}
--- !u!1 &882161158
GameObject:
  m_ObjectHideFlags: 0
  m_PrefabParentObject: {fileID: 1675150751205092, guid: 7d0bcfe5ecdb4e04a8dfabfc0bd1c32d,
    type: 2}
  m_PrefabInternal: {fileID: 1527947991}
  serializedVersion: 5
  m_Component:
  - component: {fileID: 882161159}
  - component: {fileID: 882161161}
  - component: {fileID: 882161160}
  m_Layer: 5
  m_Name: Touch20
  m_TagString: Untagged
  m_Icon: {fileID: 0}
  m_NavMeshLayer: 0
  m_StaticEditorFlags: 0
  m_IsActive: 0
--- !u!224 &882161159
RectTransform:
  m_ObjectHideFlags: 0
  m_PrefabParentObject: {fileID: 224648778458394170, guid: 7d0bcfe5ecdb4e04a8dfabfc0bd1c32d,
    type: 2}
  m_PrefabInternal: {fileID: 1527947991}
  m_GameObject: {fileID: 882161158}
  m_LocalRotation: {x: -0, y: -0, z: -0, w: 1}
  m_LocalPosition: {x: 0, y: 0, z: 0}
  m_LocalScale: {x: 1, y: 1, z: 1}
  m_Children: []
  m_Father: {fileID: 1731137534}
  m_RootOrder: 19
  m_LocalEulerAnglesHint: {x: 0, y: 0, z: 0}
  m_AnchorMin: {x: 0.5, y: 0.5}
  m_AnchorMax: {x: 0.5, y: 0.5}
  m_AnchoredPosition: {x: 0, y: 0}
  m_SizeDelta: {x: 20, y: 20}
  m_Pivot: {x: 0.5, y: 0.5}
--- !u!114 &882161160
MonoBehaviour:
  m_ObjectHideFlags: 0
  m_PrefabParentObject: {fileID: 114002472205568410, guid: 7d0bcfe5ecdb4e04a8dfabfc0bd1c32d,
    type: 2}
  m_PrefabInternal: {fileID: 1527947991}
  m_GameObject: {fileID: 882161158}
  m_Enabled: 1
  m_EditorHideFlags: 0
  m_Script: {fileID: -765806418, guid: f5f67c52d1564df4a8936ccd202a3bd8, type: 3}
  m_Name: 
  m_EditorClassIdentifier: 
  m_Material: {fileID: 0}
  m_Color: {r: 1, g: 1, b: 1, a: 1}
  m_RaycastTarget: 0
  m_OnCullStateChanged:
    m_PersistentCalls:
      m_Calls: []
    m_TypeName: UnityEngine.UI.MaskableGraphic+CullStateChangedEvent, UnityEngine.UI,
      Version=1.0.0.0, Culture=neutral, PublicKeyToken=null
  m_Sprite: {fileID: 10913, guid: 0000000000000000f000000000000000, type: 0}
  m_Type: 0
  m_PreserveAspect: 0
  m_FillCenter: 1
  m_FillMethod: 4
  m_FillAmount: 1
  m_FillClockwise: 1
  m_FillOrigin: 0
--- !u!222 &882161161
CanvasRenderer:
  m_ObjectHideFlags: 0
  m_PrefabParentObject: {fileID: 222364876195757738, guid: 7d0bcfe5ecdb4e04a8dfabfc0bd1c32d,
    type: 2}
  m_PrefabInternal: {fileID: 1527947991}
  m_GameObject: {fileID: 882161158}
--- !u!1 &890818654
GameObject:
  m_ObjectHideFlags: 0
  m_PrefabParentObject: {fileID: 1945502256332924, guid: 7d0bcfe5ecdb4e04a8dfabfc0bd1c32d,
    type: 2}
  m_PrefabInternal: {fileID: 1527947991}
  serializedVersion: 5
  m_Component:
  - component: {fileID: 890818655}
  - component: {fileID: 890818657}
  - component: {fileID: 890818656}
  m_Layer: 5
  m_Name: Touch25
  m_TagString: Untagged
  m_Icon: {fileID: 0}
  m_NavMeshLayer: 0
  m_StaticEditorFlags: 0
  m_IsActive: 0
--- !u!224 &890818655
RectTransform:
  m_ObjectHideFlags: 0
  m_PrefabParentObject: {fileID: 224822704613128250, guid: 7d0bcfe5ecdb4e04a8dfabfc0bd1c32d,
    type: 2}
  m_PrefabInternal: {fileID: 1527947991}
  m_GameObject: {fileID: 890818654}
  m_LocalRotation: {x: -0, y: -0, z: -0, w: 1}
  m_LocalPosition: {x: 0, y: 0, z: 0}
  m_LocalScale: {x: 1, y: 1, z: 1}
  m_Children: []
  m_Father: {fileID: 1731137534}
  m_RootOrder: 24
  m_LocalEulerAnglesHint: {x: 0, y: 0, z: 0}
  m_AnchorMin: {x: 0.5, y: 0.5}
  m_AnchorMax: {x: 0.5, y: 0.5}
  m_AnchoredPosition: {x: 0, y: 0}
  m_SizeDelta: {x: 20, y: 20}
  m_Pivot: {x: 0.5, y: 0.5}
--- !u!114 &890818656
MonoBehaviour:
  m_ObjectHideFlags: 0
  m_PrefabParentObject: {fileID: 114980828813928128, guid: 7d0bcfe5ecdb4e04a8dfabfc0bd1c32d,
    type: 2}
  m_PrefabInternal: {fileID: 1527947991}
  m_GameObject: {fileID: 890818654}
  m_Enabled: 1
  m_EditorHideFlags: 0
  m_Script: {fileID: -765806418, guid: f5f67c52d1564df4a8936ccd202a3bd8, type: 3}
  m_Name: 
  m_EditorClassIdentifier: 
  m_Material: {fileID: 0}
  m_Color: {r: 1, g: 1, b: 1, a: 1}
  m_RaycastTarget: 0
  m_OnCullStateChanged:
    m_PersistentCalls:
      m_Calls: []
    m_TypeName: UnityEngine.UI.MaskableGraphic+CullStateChangedEvent, UnityEngine.UI,
      Version=1.0.0.0, Culture=neutral, PublicKeyToken=null
  m_Sprite: {fileID: 10913, guid: 0000000000000000f000000000000000, type: 0}
  m_Type: 0
  m_PreserveAspect: 0
  m_FillCenter: 1
  m_FillMethod: 4
  m_FillAmount: 1
  m_FillClockwise: 1
  m_FillOrigin: 0
--- !u!222 &890818657
CanvasRenderer:
  m_ObjectHideFlags: 0
  m_PrefabParentObject: {fileID: 222215551270692150, guid: 7d0bcfe5ecdb4e04a8dfabfc0bd1c32d,
    type: 2}
  m_PrefabInternal: {fileID: 1527947991}
  m_GameObject: {fileID: 890818654}
--- !u!1 &908513244
GameObject:
  m_ObjectHideFlags: 0
  m_PrefabParentObject: {fileID: 1634793041870432, guid: 7d0bcfe5ecdb4e04a8dfabfc0bd1c32d,
    type: 2}
  m_PrefabInternal: {fileID: 1527947991}
  serializedVersion: 5
  m_Component:
  - component: {fileID: 908513245}
  - component: {fileID: 908513247}
  - component: {fileID: 908513246}
  m_Layer: 5
  m_Name: Touch12
  m_TagString: Untagged
  m_Icon: {fileID: 0}
  m_NavMeshLayer: 0
  m_StaticEditorFlags: 0
  m_IsActive: 0
--- !u!224 &908513245
RectTransform:
  m_ObjectHideFlags: 0
  m_PrefabParentObject: {fileID: 224864707059634480, guid: 7d0bcfe5ecdb4e04a8dfabfc0bd1c32d,
    type: 2}
  m_PrefabInternal: {fileID: 1527947991}
  m_GameObject: {fileID: 908513244}
  m_LocalRotation: {x: -0, y: -0, z: -0, w: 1}
  m_LocalPosition: {x: 0, y: 0, z: 0}
  m_LocalScale: {x: 1, y: 1, z: 1}
  m_Children: []
  m_Father: {fileID: 1731137534}
  m_RootOrder: 11
  m_LocalEulerAnglesHint: {x: 0, y: 0, z: 0}
  m_AnchorMin: {x: 0.5, y: 0.5}
  m_AnchorMax: {x: 0.5, y: 0.5}
  m_AnchoredPosition: {x: 0, y: 0}
  m_SizeDelta: {x: 20, y: 20}
  m_Pivot: {x: 0.5, y: 0.5}
--- !u!114 &908513246
MonoBehaviour:
  m_ObjectHideFlags: 0
  m_PrefabParentObject: {fileID: 114948128054848802, guid: 7d0bcfe5ecdb4e04a8dfabfc0bd1c32d,
    type: 2}
  m_PrefabInternal: {fileID: 1527947991}
  m_GameObject: {fileID: 908513244}
  m_Enabled: 1
  m_EditorHideFlags: 0
  m_Script: {fileID: -765806418, guid: f5f67c52d1564df4a8936ccd202a3bd8, type: 3}
  m_Name: 
  m_EditorClassIdentifier: 
  m_Material: {fileID: 0}
  m_Color: {r: 1, g: 1, b: 1, a: 1}
  m_RaycastTarget: 0
  m_OnCullStateChanged:
    m_PersistentCalls:
      m_Calls: []
    m_TypeName: UnityEngine.UI.MaskableGraphic+CullStateChangedEvent, UnityEngine.UI,
      Version=1.0.0.0, Culture=neutral, PublicKeyToken=null
  m_Sprite: {fileID: 10913, guid: 0000000000000000f000000000000000, type: 0}
  m_Type: 0
  m_PreserveAspect: 0
  m_FillCenter: 1
  m_FillMethod: 4
  m_FillAmount: 1
  m_FillClockwise: 1
  m_FillOrigin: 0
--- !u!222 &908513247
CanvasRenderer:
  m_ObjectHideFlags: 0
  m_PrefabParentObject: {fileID: 222679817156465054, guid: 7d0bcfe5ecdb4e04a8dfabfc0bd1c32d,
    type: 2}
  m_PrefabInternal: {fileID: 1527947991}
  m_GameObject: {fileID: 908513244}
--- !u!1 &929152699
GameObject:
  m_ObjectHideFlags: 0
  m_PrefabParentObject: {fileID: 0}
  m_PrefabInternal: {fileID: 0}
  serializedVersion: 5
  m_Component:
  - component: {fileID: 929152701}
  - component: {fileID: 929152700}
  m_Layer: 0
  m_Name: Directional Light
  m_TagString: Untagged
  m_Icon: {fileID: 0}
  m_NavMeshLayer: 0
  m_StaticEditorFlags: 0
  m_IsActive: 1
--- !u!108 &929152700
Light:
  m_ObjectHideFlags: 0
  m_PrefabParentObject: {fileID: 0}
  m_PrefabInternal: {fileID: 0}
  m_GameObject: {fileID: 929152699}
  m_Enabled: 1
  serializedVersion: 8
  m_Type: 1
  m_Color: {r: 1, g: 0.95686275, b: 0.8392157, a: 1}
  m_Intensity: 1
  m_Range: 10
  m_SpotAngle: 30
  m_CookieSize: 10
  m_Shadows:
    m_Type: 2
    m_Resolution: -1
    m_CustomResolution: -1
    m_Strength: 1
    m_Bias: 0.05
    m_NormalBias: 0.4
    m_NearPlane: 0.2
  m_Cookie: {fileID: 0}
  m_DrawHalo: 0
  m_Flare: {fileID: 0}
  m_RenderMode: 0
  m_CullingMask:
    serializedVersion: 2
    m_Bits: 4294967295
  m_Lightmapping: 4
  m_AreaSize: {x: 1, y: 1}
  m_BounceIntensity: 1
  m_ColorTemperature: 6570
  m_UseColorTemperature: 0
  m_ShadowRadius: 0
  m_ShadowAngle: 0
--- !u!4 &929152701
Transform:
  m_ObjectHideFlags: 0
  m_PrefabParentObject: {fileID: 0}
  m_PrefabInternal: {fileID: 0}
  m_GameObject: {fileID: 929152699}
  m_LocalRotation: {x: 0.40821788, y: -0.23456968, z: 0.10938163, w: 0.8754261}
  m_LocalPosition: {x: 0, y: 3, z: 0}
  m_LocalScale: {x: 1, y: 1, z: 1}
  m_Children: []
  m_Father: {fileID: 0}
  m_RootOrder: 1
  m_LocalEulerAnglesHint: {x: 50, y: -30, z: 0}
--- !u!1 &929209120
GameObject:
  m_ObjectHideFlags: 0
  m_PrefabParentObject: {fileID: 1038176040386688, guid: 7d0bcfe5ecdb4e04a8dfabfc0bd1c32d,
    type: 2}
  m_PrefabInternal: {fileID: 1527947991}
  serializedVersion: 5
  m_Component:
  - component: {fileID: 929209121}
  - component: {fileID: 929209123}
  - component: {fileID: 929209122}
  m_Layer: 5
  m_Name: Touch19
  m_TagString: Untagged
  m_Icon: {fileID: 0}
  m_NavMeshLayer: 0
  m_StaticEditorFlags: 0
  m_IsActive: 0
--- !u!224 &929209121
RectTransform:
  m_ObjectHideFlags: 0
  m_PrefabParentObject: {fileID: 224353800534255520, guid: 7d0bcfe5ecdb4e04a8dfabfc0bd1c32d,
    type: 2}
  m_PrefabInternal: {fileID: 1527947991}
  m_GameObject: {fileID: 929209120}
  m_LocalRotation: {x: -0, y: -0, z: -0, w: 1}
  m_LocalPosition: {x: 0, y: 0, z: 0}
  m_LocalScale: {x: 1, y: 1, z: 1}
  m_Children: []
  m_Father: {fileID: 1731137534}
  m_RootOrder: 18
  m_LocalEulerAnglesHint: {x: 0, y: 0, z: 0}
  m_AnchorMin: {x: 0.5, y: 0.5}
  m_AnchorMax: {x: 0.5, y: 0.5}
  m_AnchoredPosition: {x: 0, y: 0}
  m_SizeDelta: {x: 20, y: 20}
  m_Pivot: {x: 0.5, y: 0.5}
--- !u!114 &929209122
MonoBehaviour:
  m_ObjectHideFlags: 0
  m_PrefabParentObject: {fileID: 114135430157744436, guid: 7d0bcfe5ecdb4e04a8dfabfc0bd1c32d,
    type: 2}
  m_PrefabInternal: {fileID: 1527947991}
  m_GameObject: {fileID: 929209120}
  m_Enabled: 1
  m_EditorHideFlags: 0
  m_Script: {fileID: -765806418, guid: f5f67c52d1564df4a8936ccd202a3bd8, type: 3}
  m_Name: 
  m_EditorClassIdentifier: 
  m_Material: {fileID: 0}
  m_Color: {r: 1, g: 1, b: 1, a: 1}
  m_RaycastTarget: 0
  m_OnCullStateChanged:
    m_PersistentCalls:
      m_Calls: []
    m_TypeName: UnityEngine.UI.MaskableGraphic+CullStateChangedEvent, UnityEngine.UI,
      Version=1.0.0.0, Culture=neutral, PublicKeyToken=null
  m_Sprite: {fileID: 10913, guid: 0000000000000000f000000000000000, type: 0}
  m_Type: 0
  m_PreserveAspect: 0
  m_FillCenter: 1
  m_FillMethod: 4
  m_FillAmount: 1
  m_FillClockwise: 1
  m_FillOrigin: 0
--- !u!222 &929209123
CanvasRenderer:
  m_ObjectHideFlags: 0
  m_PrefabParentObject: {fileID: 222841019571340468, guid: 7d0bcfe5ecdb4e04a8dfabfc0bd1c32d,
    type: 2}
  m_PrefabInternal: {fileID: 1527947991}
  m_GameObject: {fileID: 929209120}
--- !u!1 &1004519151
GameObject:
  m_ObjectHideFlags: 0
  m_PrefabParentObject: {fileID: 1633859190892260, guid: 7d0bcfe5ecdb4e04a8dfabfc0bd1c32d,
    type: 2}
  m_PrefabInternal: {fileID: 1527947991}
  serializedVersion: 5
  m_Component:
  - component: {fileID: 1004519152}
  - component: {fileID: 1004519154}
  - component: {fileID: 1004519153}
  m_Layer: 5
  m_Name: Touch15
  m_TagString: Untagged
  m_Icon: {fileID: 0}
  m_NavMeshLayer: 0
  m_StaticEditorFlags: 0
  m_IsActive: 0
--- !u!224 &1004519152
RectTransform:
  m_ObjectHideFlags: 0
  m_PrefabParentObject: {fileID: 224813212081914186, guid: 7d0bcfe5ecdb4e04a8dfabfc0bd1c32d,
    type: 2}
  m_PrefabInternal: {fileID: 1527947991}
  m_GameObject: {fileID: 1004519151}
  m_LocalRotation: {x: -0, y: -0, z: -0, w: 1}
  m_LocalPosition: {x: 0, y: 0, z: 0}
  m_LocalScale: {x: 1, y: 1, z: 1}
  m_Children: []
  m_Father: {fileID: 1731137534}
  m_RootOrder: 14
  m_LocalEulerAnglesHint: {x: 0, y: 0, z: 0}
  m_AnchorMin: {x: 0.5, y: 0.5}
  m_AnchorMax: {x: 0.5, y: 0.5}
  m_AnchoredPosition: {x: 0, y: 0}
  m_SizeDelta: {x: 20, y: 20}
  m_Pivot: {x: 0.5, y: 0.5}
--- !u!114 &1004519153
MonoBehaviour:
  m_ObjectHideFlags: 0
  m_PrefabParentObject: {fileID: 114539953893720078, guid: 7d0bcfe5ecdb4e04a8dfabfc0bd1c32d,
    type: 2}
  m_PrefabInternal: {fileID: 1527947991}
  m_GameObject: {fileID: 1004519151}
  m_Enabled: 1
  m_EditorHideFlags: 0
  m_Script: {fileID: -765806418, guid: f5f67c52d1564df4a8936ccd202a3bd8, type: 3}
  m_Name: 
  m_EditorClassIdentifier: 
  m_Material: {fileID: 0}
  m_Color: {r: 1, g: 1, b: 1, a: 1}
  m_RaycastTarget: 0
  m_OnCullStateChanged:
    m_PersistentCalls:
      m_Calls: []
    m_TypeName: UnityEngine.UI.MaskableGraphic+CullStateChangedEvent, UnityEngine.UI,
      Version=1.0.0.0, Culture=neutral, PublicKeyToken=null
  m_Sprite: {fileID: 10913, guid: 0000000000000000f000000000000000, type: 0}
  m_Type: 0
  m_PreserveAspect: 0
  m_FillCenter: 1
  m_FillMethod: 4
  m_FillAmount: 1
  m_FillClockwise: 1
  m_FillOrigin: 0
--- !u!222 &1004519154
CanvasRenderer:
  m_ObjectHideFlags: 0
  m_PrefabParentObject: {fileID: 222152134740202132, guid: 7d0bcfe5ecdb4e04a8dfabfc0bd1c32d,
    type: 2}
  m_PrefabInternal: {fileID: 1527947991}
  m_GameObject: {fileID: 1004519151}
--- !u!1 &1046372678
GameObject:
  m_ObjectHideFlags: 0
  m_PrefabParentObject: {fileID: 1000011182920654, guid: 7d0bcfe5ecdb4e04a8dfabfc0bd1c32d,
    type: 2}
  m_PrefabInternal: {fileID: 1527947991}
  serializedVersion: 5
  m_Component:
  - component: {fileID: 1046372679}
  - component: {fileID: 1046372681}
  - component: {fileID: 1046372680}
  m_Layer: 5
  m_Name: Touch5
  m_TagString: Untagged
  m_Icon: {fileID: 0}
  m_NavMeshLayer: 0
  m_StaticEditorFlags: 0
  m_IsActive: 0
--- !u!224 &1046372679
RectTransform:
  m_ObjectHideFlags: 0
  m_PrefabParentObject: {fileID: 224000013168730436, guid: 7d0bcfe5ecdb4e04a8dfabfc0bd1c32d,
    type: 2}
  m_PrefabInternal: {fileID: 1527947991}
  m_GameObject: {fileID: 1046372678}
  m_LocalRotation: {x: 0, y: 0, z: 0, w: 1}
  m_LocalPosition: {x: 0, y: 0, z: 0}
  m_LocalScale: {x: 1, y: 1, z: 1}
  m_Children: []
  m_Father: {fileID: 1731137534}
  m_RootOrder: 4
  m_LocalEulerAnglesHint: {x: 0, y: 0, z: 0}
  m_AnchorMin: {x: 0.5, y: 0.5}
  m_AnchorMax: {x: 0.5, y: 0.5}
  m_AnchoredPosition: {x: 0, y: 0}
  m_SizeDelta: {x: 20, y: 20}
  m_Pivot: {x: 0.5, y: 0.5}
--- !u!114 &1046372680
MonoBehaviour:
  m_ObjectHideFlags: 0
  m_PrefabParentObject: {fileID: 114000013324447652, guid: 7d0bcfe5ecdb4e04a8dfabfc0bd1c32d,
    type: 2}
  m_PrefabInternal: {fileID: 1527947991}
  m_GameObject: {fileID: 1046372678}
  m_Enabled: 1
  m_EditorHideFlags: 0
  m_Script: {fileID: -765806418, guid: f5f67c52d1564df4a8936ccd202a3bd8, type: 3}
  m_Name: 
  m_EditorClassIdentifier: 
  m_Material: {fileID: 0}
  m_Color: {r: 1, g: 1, b: 1, a: 1}
  m_RaycastTarget: 0
  m_OnCullStateChanged:
    m_PersistentCalls:
      m_Calls: []
    m_TypeName: UnityEngine.UI.MaskableGraphic+CullStateChangedEvent, UnityEngine.UI,
      Version=1.0.0.0, Culture=neutral, PublicKeyToken=null
  m_Sprite: {fileID: 10913, guid: 0000000000000000f000000000000000, type: 0}
  m_Type: 0
  m_PreserveAspect: 0
  m_FillCenter: 1
  m_FillMethod: 4
  m_FillAmount: 1
  m_FillClockwise: 1
  m_FillOrigin: 0
--- !u!222 &1046372681
CanvasRenderer:
  m_ObjectHideFlags: 0
  m_PrefabParentObject: {fileID: 222000013842835848, guid: 7d0bcfe5ecdb4e04a8dfabfc0bd1c32d,
    type: 2}
  m_PrefabInternal: {fileID: 1527947991}
  m_GameObject: {fileID: 1046372678}
--- !u!1 &1195391101
GameObject:
  m_ObjectHideFlags: 0
  m_PrefabParentObject: {fileID: 0}
  m_PrefabInternal: {fileID: 0}
  serializedVersion: 5
  m_Component:
  - component: {fileID: 1195391105}
  - component: {fileID: 1195391104}
  - component: {fileID: 1195391103}
  - component: {fileID: 1195391102}
  m_Layer: 0
  m_Name: Cube
  m_TagString: Untagged
  m_Icon: {fileID: 0}
  m_NavMeshLayer: 0
  m_StaticEditorFlags: 0
  m_IsActive: 1
--- !u!23 &1195391102
MeshRenderer:
  m_ObjectHideFlags: 0
  m_PrefabParentObject: {fileID: 0}
  m_PrefabInternal: {fileID: 0}
  m_GameObject: {fileID: 1195391101}
  m_Enabled: 1
  m_CastShadows: 1
  m_ReceiveShadows: 1
  m_DynamicOccludee: 1
  m_MotionVectors: 1
  m_LightProbeUsage: 1
  m_ReflectionProbeUsage: 1
  m_Materials:
  - {fileID: 10303, guid: 0000000000000000f000000000000000, type: 0}
  m_StaticBatchInfo:
    firstSubMesh: 0
    subMeshCount: 0
  m_StaticBatchRoot: {fileID: 0}
  m_ProbeAnchor: {fileID: 0}
  m_LightProbeVolumeOverride: {fileID: 0}
  m_ScaleInLightmap: 1
  m_PreserveUVs: 1
  m_IgnoreNormalsForChartDetection: 0
  m_ImportantGI: 0
  m_StitchLightmapSeams: 0
  m_SelectedEditorRenderState: 3
  m_MinimumChartSize: 4
  m_AutoUVMaxDistance: 0.5
  m_AutoUVMaxAngle: 89
  m_LightmapParameters: {fileID: 0}
  m_SortingLayerID: 0
  m_SortingLayer: 0
  m_SortingOrder: 0
--- !u!65 &1195391103
BoxCollider:
  m_ObjectHideFlags: 0
  m_PrefabParentObject: {fileID: 0}
  m_PrefabInternal: {fileID: 0}
  m_GameObject: {fileID: 1195391101}
  m_Material: {fileID: 0}
  m_IsTrigger: 0
  m_Enabled: 1
  serializedVersion: 2
  m_Size: {x: 1, y: 1, z: 1}
  m_Center: {x: 0, y: 0, z: 0}
--- !u!33 &1195391104
MeshFilter:
  m_ObjectHideFlags: 0
  m_PrefabParentObject: {fileID: 0}
  m_PrefabInternal: {fileID: 0}
  m_GameObject: {fileID: 1195391101}
  m_Mesh: {fileID: 10202, guid: 0000000000000000e000000000000000, type: 0}
--- !u!4 &1195391105
Transform:
  m_ObjectHideFlags: 0
  m_PrefabParentObject: {fileID: 0}
  m_PrefabInternal: {fileID: 0}
  m_GameObject: {fileID: 1195391101}
  m_LocalRotation: {x: 0, y: 0, z: 0, w: 1}
  m_LocalPosition: {x: 0, y: 2, z: 0}
  m_LocalScale: {x: 2, y: 2, z: 2}
  m_Children: []
  m_Father: {fileID: 0}
  m_RootOrder: 3
  m_LocalEulerAnglesHint: {x: 0, y: 0, z: 0}
--- !u!1 &1479768567
GameObject:
  m_ObjectHideFlags: 0
  m_PrefabParentObject: {fileID: 1000011448974762, guid: 7d0bcfe5ecdb4e04a8dfabfc0bd1c32d,
    type: 2}
  m_PrefabInternal: {fileID: 1527947991}
  serializedVersion: 5
  m_Component:
  - component: {fileID: 1479768568}
  - component: {fileID: 1479768570}
  - component: {fileID: 1479768569}
  m_Layer: 5
  m_Name: Touch4
  m_TagString: Untagged
  m_Icon: {fileID: 0}
  m_NavMeshLayer: 0
  m_StaticEditorFlags: 0
  m_IsActive: 0
--- !u!224 &1479768568
RectTransform:
  m_ObjectHideFlags: 0
  m_PrefabParentObject: {fileID: 224000012131069586, guid: 7d0bcfe5ecdb4e04a8dfabfc0bd1c32d,
    type: 2}
  m_PrefabInternal: {fileID: 1527947991}
  m_GameObject: {fileID: 1479768567}
  m_LocalRotation: {x: 0, y: 0, z: 0, w: 1}
  m_LocalPosition: {x: 0, y: 0, z: 0}
  m_LocalScale: {x: 1, y: 1, z: 1}
  m_Children: []
  m_Father: {fileID: 1731137534}
  m_RootOrder: 3
  m_LocalEulerAnglesHint: {x: 0, y: 0, z: 0}
  m_AnchorMin: {x: 0.5, y: 0.5}
  m_AnchorMax: {x: 0.5, y: 0.5}
  m_AnchoredPosition: {x: 0, y: 0}
  m_SizeDelta: {x: 20, y: 20}
  m_Pivot: {x: 0.5, y: 0.5}
--- !u!114 &1479768569
MonoBehaviour:
  m_ObjectHideFlags: 0
  m_PrefabParentObject: {fileID: 114000013193488326, guid: 7d0bcfe5ecdb4e04a8dfabfc0bd1c32d,
    type: 2}
  m_PrefabInternal: {fileID: 1527947991}
  m_GameObject: {fileID: 1479768567}
  m_Enabled: 1
  m_EditorHideFlags: 0
  m_Script: {fileID: -765806418, guid: f5f67c52d1564df4a8936ccd202a3bd8, type: 3}
  m_Name: 
  m_EditorClassIdentifier: 
  m_Material: {fileID: 0}
  m_Color: {r: 1, g: 1, b: 1, a: 1}
  m_RaycastTarget: 0
  m_OnCullStateChanged:
    m_PersistentCalls:
      m_Calls: []
    m_TypeName: UnityEngine.UI.MaskableGraphic+CullStateChangedEvent, UnityEngine.UI,
      Version=1.0.0.0, Culture=neutral, PublicKeyToken=null
  m_Sprite: {fileID: 10913, guid: 0000000000000000f000000000000000, type: 0}
  m_Type: 0
  m_PreserveAspect: 0
  m_FillCenter: 1
  m_FillMethod: 4
  m_FillAmount: 1
  m_FillClockwise: 1
  m_FillOrigin: 0
--- !u!222 &1479768570
CanvasRenderer:
  m_ObjectHideFlags: 0
  m_PrefabParentObject: {fileID: 222000011324840998, guid: 7d0bcfe5ecdb4e04a8dfabfc0bd1c32d,
    type: 2}
  m_PrefabInternal: {fileID: 1527947991}
  m_GameObject: {fileID: 1479768567}
--- !u!1001 &1527947991
Prefab:
  m_ObjectHideFlags: 0
  serializedVersion: 2
  m_Modification:
    m_TransformParent: {fileID: 0}
    m_Modifications:
    - target: {fileID: 4000012487907716, guid: 7d0bcfe5ecdb4e04a8dfabfc0bd1c32d, type: 2}
      propertyPath: m_LocalPosition.x
      value: 0
      objectReference: {fileID: 0}
    - target: {fileID: 4000012487907716, guid: 7d0bcfe5ecdb4e04a8dfabfc0bd1c32d, type: 2}
      propertyPath: m_LocalPosition.y
      value: 0
      objectReference: {fileID: 0}
    - target: {fileID: 4000012487907716, guid: 7d0bcfe5ecdb4e04a8dfabfc0bd1c32d, type: 2}
      propertyPath: m_LocalPosition.z
      value: 0
      objectReference: {fileID: 0}
    - target: {fileID: 4000012487907716, guid: 7d0bcfe5ecdb4e04a8dfabfc0bd1c32d, type: 2}
      propertyPath: m_LocalRotation.x
      value: 0
      objectReference: {fileID: 0}
    - target: {fileID: 4000012487907716, guid: 7d0bcfe5ecdb4e04a8dfabfc0bd1c32d, type: 2}
      propertyPath: m_LocalRotation.y
      value: 0
      objectReference: {fileID: 0}
    - target: {fileID: 4000012487907716, guid: 7d0bcfe5ecdb4e04a8dfabfc0bd1c32d, type: 2}
      propertyPath: m_LocalRotation.z
      value: 0
      objectReference: {fileID: 0}
    - target: {fileID: 4000012487907716, guid: 7d0bcfe5ecdb4e04a8dfabfc0bd1c32d, type: 2}
      propertyPath: m_LocalRotation.w
      value: 1
      objectReference: {fileID: 0}
    - target: {fileID: 4000012487907716, guid: 7d0bcfe5ecdb4e04a8dfabfc0bd1c32d, type: 2}
      propertyPath: m_RootOrder
      value: 4
      objectReference: {fileID: 0}
    - target: {fileID: 114000013960090368, guid: 7d0bcfe5ecdb4e04a8dfabfc0bd1c32d,
        type: 2}
      propertyPath: ShowTouches
      value: 1
      objectReference: {fileID: 0}
    m_RemovedComponents: []
  m_ParentPrefab: {fileID: 100100000, guid: 7d0bcfe5ecdb4e04a8dfabfc0bd1c32d, type: 2}
  m_RootGameObject: {fileID: 310430190}
  m_IsPrefabParent: 0
--- !u!1 &1730158528
GameObject:
  m_ObjectHideFlags: 0
  m_PrefabParentObject: {fileID: 1966647291561914, guid: 7d0bcfe5ecdb4e04a8dfabfc0bd1c32d,
    type: 2}
  m_PrefabInternal: {fileID: 1527947991}
  serializedVersion: 5
  m_Component:
  - component: {fileID: 1730158529}
  - component: {fileID: 1730158531}
  - component: {fileID: 1730158530}
  m_Layer: 5
  m_Name: Touch21
  m_TagString: Untagged
  m_Icon: {fileID: 0}
  m_NavMeshLayer: 0
  m_StaticEditorFlags: 0
  m_IsActive: 0
--- !u!224 &1730158529
RectTransform:
  m_ObjectHideFlags: 0
  m_PrefabParentObject: {fileID: 224474069406327648, guid: 7d0bcfe5ecdb4e04a8dfabfc0bd1c32d,
    type: 2}
  m_PrefabInternal: {fileID: 1527947991}
  m_GameObject: {fileID: 1730158528}
  m_LocalRotation: {x: -0, y: -0, z: -0, w: 1}
  m_LocalPosition: {x: 0, y: 0, z: 0}
  m_LocalScale: {x: 1, y: 1, z: 1}
  m_Children: []
  m_Father: {fileID: 1731137534}
  m_RootOrder: 20
  m_LocalEulerAnglesHint: {x: 0, y: 0, z: 0}
  m_AnchorMin: {x: 0.5, y: 0.5}
  m_AnchorMax: {x: 0.5, y: 0.5}
  m_AnchoredPosition: {x: 0, y: 0}
  m_SizeDelta: {x: 20, y: 20}
  m_Pivot: {x: 0.5, y: 0.5}
--- !u!114 &1730158530
MonoBehaviour:
  m_ObjectHideFlags: 0
  m_PrefabParentObject: {fileID: 114106223857250038, guid: 7d0bcfe5ecdb4e04a8dfabfc0bd1c32d,
    type: 2}
  m_PrefabInternal: {fileID: 1527947991}
  m_GameObject: {fileID: 1730158528}
  m_Enabled: 1
  m_EditorHideFlags: 0
  m_Script: {fileID: -765806418, guid: f5f67c52d1564df4a8936ccd202a3bd8, type: 3}
  m_Name: 
  m_EditorClassIdentifier: 
  m_Material: {fileID: 0}
  m_Color: {r: 1, g: 1, b: 1, a: 1}
  m_RaycastTarget: 0
  m_OnCullStateChanged:
    m_PersistentCalls:
      m_Calls: []
    m_TypeName: UnityEngine.UI.MaskableGraphic+CullStateChangedEvent, UnityEngine.UI,
      Version=1.0.0.0, Culture=neutral, PublicKeyToken=null
  m_Sprite: {fileID: 10913, guid: 0000000000000000f000000000000000, type: 0}
  m_Type: 0
  m_PreserveAspect: 0
  m_FillCenter: 1
  m_FillMethod: 4
  m_FillAmount: 1
  m_FillClockwise: 1
  m_FillOrigin: 0
--- !u!222 &1730158531
CanvasRenderer:
  m_ObjectHideFlags: 0
  m_PrefabParentObject: {fileID: 222597513748796828, guid: 7d0bcfe5ecdb4e04a8dfabfc0bd1c32d,
    type: 2}
  m_PrefabInternal: {fileID: 1527947991}
  m_GameObject: {fileID: 1730158528}
--- !u!1 &1731137533
GameObject:
  m_ObjectHideFlags: 0
  m_PrefabParentObject: {fileID: 1000014078666968, guid: 7d0bcfe5ecdb4e04a8dfabfc0bd1c32d,
    type: 2}
  m_PrefabInternal: {fileID: 1527947991}
  serializedVersion: 5
  m_Component:
  - component: {fileID: 1731137534}
  m_Layer: 5
  m_Name: Touches
  m_TagString: Untagged
  m_Icon: {fileID: 0}
  m_NavMeshLayer: 0
  m_StaticEditorFlags: 0
  m_IsActive: 1
--- !u!224 &1731137534
RectTransform:
  m_ObjectHideFlags: 0
  m_PrefabParentObject: {fileID: 224000012329810274, guid: 7d0bcfe5ecdb4e04a8dfabfc0bd1c32d,
    type: 2}
  m_PrefabInternal: {fileID: 1527947991}
  m_GameObject: {fileID: 1731137533}
  m_LocalRotation: {x: -0, y: -0, z: -0, w: 1}
  m_LocalPosition: {x: 0, y: 0, z: 0}
  m_LocalScale: {x: 2.2325191, y: 2.2325191, z: 1}
  m_Children:
  - {fileID: 1868335147}
  - {fileID: 583375206}
  - {fileID: 157081271}
  - {fileID: 1479768568}
  - {fileID: 1046372679}
  - {fileID: 462820493}
  - {fileID: 820783686}
  - {fileID: 28108015}
  - {fileID: 32801572}
  - {fileID: 1868075310}
  - {fileID: 1883776818}
  - {fileID: 908513245}
  - {fileID: 313499065}
  - {fileID: 171091875}
  - {fileID: 1004519152}
  - {fileID: 407342429}
  - {fileID: 158482163}
  - {fileID: 1850471141}
  - {fileID: 929209121}
  - {fileID: 882161159}
  - {fileID: 1730158529}
  - {fileID: 340371256}
  - {fileID: 394436347}
  - {fileID: 1970590321}
  - {fileID: 890818655}
  - {fileID: 399676255}
  - {fileID: 2082723555}
  - {fileID: 749568038}
  - {fileID: 862073172}
  - {fileID: 119378153}
  - {fileID: 1937007952}
  - {fileID: 879238834}
  m_Father: {fileID: 1738172963}
  m_RootOrder: 0
  m_LocalEulerAnglesHint: {x: 0, y: 0, z: 0}
  m_AnchorMin: {x: 0.5, y: 0.5}
  m_AnchorMax: {x: 0.5, y: 0.5}
  m_AnchoredPosition: {x: 0, y: 0}
  m_SizeDelta: {x: 100, y: 100}
  m_Pivot: {x: 0.5, y: 0.5}
--- !u!1 &1738172962
GameObject:
  m_ObjectHideFlags: 0
  m_PrefabParentObject: {fileID: 1000010295376970, guid: 7d0bcfe5ecdb4e04a8dfabfc0bd1c32d,
    type: 2}
  m_PrefabInternal: {fileID: 1527947991}
  serializedVersion: 5
  m_Component:
  - component: {fileID: 1738172963}
  - component: {fileID: 1738172966}
  - component: {fileID: 1738172965}
  - component: {fileID: 1738172964}
  m_Layer: 0
  m_Name: TouchesCanvas
  m_TagString: Untagged
  m_Icon: {fileID: 0}
  m_NavMeshLayer: 0
  m_StaticEditorFlags: 0
  m_IsActive: 0
--- !u!224 &1738172963
RectTransform:
  m_ObjectHideFlags: 0
  m_PrefabParentObject: {fileID: 224000013078981750, guid: 7d0bcfe5ecdb4e04a8dfabfc0bd1c32d,
    type: 2}
  m_PrefabInternal: {fileID: 1527947991}
  m_GameObject: {fileID: 1738172962}
  m_LocalRotation: {x: 0, y: 0, z: 0, w: 1}
  m_LocalPosition: {x: 0, y: 0, z: 0}
  m_LocalScale: {x: 0, y: 0, z: 0}
  m_Children:
  - {fileID: 1731137534}
  m_Father: {fileID: 310430192}
  m_RootOrder: 0
  m_LocalEulerAnglesHint: {x: 0, y: 0, z: 0}
  m_AnchorMin: {x: 0, y: 0}
  m_AnchorMax: {x: 0, y: 0}
  m_AnchoredPosition: {x: 0, y: 0}
  m_SizeDelta: {x: 0, y: 0}
  m_Pivot: {x: 0, y: 0}
--- !u!114 &1738172964
MonoBehaviour:
  m_ObjectHideFlags: 0
  m_PrefabParentObject: {fileID: 114000011850806634, guid: 7d0bcfe5ecdb4e04a8dfabfc0bd1c32d,
    type: 2}
  m_PrefabInternal: {fileID: 1527947991}
  m_GameObject: {fileID: 1738172962}
  m_Enabled: 1
  m_EditorHideFlags: 0
  m_Script: {fileID: 1301386320, guid: f5f67c52d1564df4a8936ccd202a3bd8, type: 3}
  m_Name: 
  m_EditorClassIdentifier: 
  m_IgnoreReversedGraphics: 1
  m_BlockingObjects: 0
  m_BlockingMask:
    serializedVersion: 2
    m_Bits: 4294967295
--- !u!114 &1738172965
MonoBehaviour:
  m_ObjectHideFlags: 0
  m_PrefabParentObject: {fileID: 114000012490786366, guid: 7d0bcfe5ecdb4e04a8dfabfc0bd1c32d,
    type: 2}
  m_PrefabInternal: {fileID: 1527947991}
  m_GameObject: {fileID: 1738172962}
  m_Enabled: 1
  m_EditorHideFlags: 0
  m_Script: {fileID: 1980459831, guid: f5f67c52d1564df4a8936ccd202a3bd8, type: 3}
  m_Name: 
  m_EditorClassIdentifier: 
  m_UiScaleMode: 2
  m_ReferencePixelsPerUnit: 100
  m_ScaleFactor: 1
  m_ReferenceResolution: {x: 800, y: 600}
  m_ScreenMatchMode: 0
  m_MatchWidthOrHeight: 0
  m_PhysicalUnit: 3
  m_FallbackScreenDPI: 200
  m_DefaultSpriteDPI: 200
  m_DynamicPixelsPerUnit: 1
--- !u!223 &1738172966
Canvas:
  m_ObjectHideFlags: 0
  m_PrefabParentObject: {fileID: 223000013892560006, guid: 7d0bcfe5ecdb4e04a8dfabfc0bd1c32d,
    type: 2}
  m_PrefabInternal: {fileID: 1527947991}
  m_GameObject: {fileID: 1738172962}
  m_Enabled: 1
  serializedVersion: 3
  m_RenderMode: 0
  m_Camera: {fileID: 0}
  m_PlaneDistance: 100
  m_PixelPerfect: 0
  m_ReceivesEvents: 1
  m_OverrideSorting: 0
  m_OverridePixelPerfect: 0
  m_SortingBucketNormalizedSize: 0
  m_AdditionalShaderChannelsFlag: 25
  m_SortingLayerID: 0
  m_SortingOrder: 100
  m_TargetDisplay: 0
--- !u!1 &1850471140
GameObject:
  m_ObjectHideFlags: 0
  m_PrefabParentObject: {fileID: 1517984179577524, guid: 7d0bcfe5ecdb4e04a8dfabfc0bd1c32d,
    type: 2}
  m_PrefabInternal: {fileID: 1527947991}
  serializedVersion: 5
  m_Component:
  - component: {fileID: 1850471141}
  - component: {fileID: 1850471143}
  - component: {fileID: 1850471142}
  m_Layer: 5
  m_Name: Touch18
  m_TagString: Untagged
  m_Icon: {fileID: 0}
  m_NavMeshLayer: 0
  m_StaticEditorFlags: 0
  m_IsActive: 0
--- !u!224 &1850471141
RectTransform:
  m_ObjectHideFlags: 0
  m_PrefabParentObject: {fileID: 224652916059917624, guid: 7d0bcfe5ecdb4e04a8dfabfc0bd1c32d,
    type: 2}
  m_PrefabInternal: {fileID: 1527947991}
  m_GameObject: {fileID: 1850471140}
  m_LocalRotation: {x: -0, y: -0, z: -0, w: 1}
  m_LocalPosition: {x: 0, y: 0, z: 0}
  m_LocalScale: {x: 1, y: 1, z: 1}
  m_Children: []
  m_Father: {fileID: 1731137534}
  m_RootOrder: 17
  m_LocalEulerAnglesHint: {x: 0, y: 0, z: 0}
  m_AnchorMin: {x: 0.5, y: 0.5}
  m_AnchorMax: {x: 0.5, y: 0.5}
  m_AnchoredPosition: {x: 0, y: 0}
  m_SizeDelta: {x: 20, y: 20}
  m_Pivot: {x: 0.5, y: 0.5}
--- !u!114 &1850471142
MonoBehaviour:
  m_ObjectHideFlags: 0
  m_PrefabParentObject: {fileID: 114096086519285308, guid: 7d0bcfe5ecdb4e04a8dfabfc0bd1c32d,
    type: 2}
  m_PrefabInternal: {fileID: 1527947991}
  m_GameObject: {fileID: 1850471140}
  m_Enabled: 1
  m_EditorHideFlags: 0
  m_Script: {fileID: -765806418, guid: f5f67c52d1564df4a8936ccd202a3bd8, type: 3}
  m_Name: 
  m_EditorClassIdentifier: 
  m_Material: {fileID: 0}
  m_Color: {r: 1, g: 1, b: 1, a: 1}
  m_RaycastTarget: 0
  m_OnCullStateChanged:
    m_PersistentCalls:
      m_Calls: []
    m_TypeName: UnityEngine.UI.MaskableGraphic+CullStateChangedEvent, UnityEngine.UI,
      Version=1.0.0.0, Culture=neutral, PublicKeyToken=null
  m_Sprite: {fileID: 10913, guid: 0000000000000000f000000000000000, type: 0}
  m_Type: 0
  m_PreserveAspect: 0
  m_FillCenter: 1
  m_FillMethod: 4
  m_FillAmount: 1
  m_FillClockwise: 1
  m_FillOrigin: 0
--- !u!222 &1850471143
CanvasRenderer:
  m_ObjectHideFlags: 0
  m_PrefabParentObject: {fileID: 222594810136549352, guid: 7d0bcfe5ecdb4e04a8dfabfc0bd1c32d,
    type: 2}
  m_PrefabInternal: {fileID: 1527947991}
  m_GameObject: {fileID: 1850471140}
--- !u!1 &1856318167
GameObject:
  m_ObjectHideFlags: 0
  m_PrefabParentObject: {fileID: 0}
  m_PrefabInternal: {fileID: 0}
  serializedVersion: 5
  m_Component:
  - component: {fileID: 1856318171}
  - component: {fileID: 1856318170}
  - component: {fileID: 1856318169}
  - component: {fileID: 1856318168}
  m_Layer: 5
  m_Name: Canvas
  m_TagString: Untagged
  m_Icon: {fileID: 0}
  m_NavMeshLayer: 0
  m_StaticEditorFlags: 0
  m_IsActive: 1
--- !u!114 &1856318168
MonoBehaviour:
  m_ObjectHideFlags: 0
  m_PrefabParentObject: {fileID: 0}
  m_PrefabInternal: {fileID: 0}
  m_GameObject: {fileID: 1856318167}
  m_Enabled: 1
  m_EditorHideFlags: 0
  m_Script: {fileID: 1301386320, guid: f70555f144d8491a825f0804e09c671c, type: 3}
  m_Name: 
  m_EditorClassIdentifier: 
  m_IgnoreReversedGraphics: 1
  m_BlockingObjects: 0
  m_BlockingMask:
    serializedVersion: 2
    m_Bits: 4294967295
--- !u!114 &1856318169
MonoBehaviour:
  m_ObjectHideFlags: 0
  m_PrefabParentObject: {fileID: 0}
  m_PrefabInternal: {fileID: 0}
  m_GameObject: {fileID: 1856318167}
  m_Enabled: 1
  m_EditorHideFlags: 0
  m_Script: {fileID: 1980459831, guid: f70555f144d8491a825f0804e09c671c, type: 3}
  m_Name: 
  m_EditorClassIdentifier: 
  m_UiScaleMode: 1
  m_ReferencePixelsPerUnit: 100
  m_ScaleFactor: 1
  m_ReferenceResolution: {x: 800, y: 600}
  m_ScreenMatchMode: 0
  m_MatchWidthOrHeight: 0
  m_PhysicalUnit: 3
  m_FallbackScreenDPI: 96
  m_DefaultSpriteDPI: 96
  m_DynamicPixelsPerUnit: 1
--- !u!223 &1856318170
Canvas:
  m_ObjectHideFlags: 0
  m_PrefabParentObject: {fileID: 0}
  m_PrefabInternal: {fileID: 0}
  m_GameObject: {fileID: 1856318167}
  m_Enabled: 1
  serializedVersion: 3
  m_RenderMode: 0
  m_Camera: {fileID: 0}
  m_PlaneDistance: 100
  m_PixelPerfect: 0
  m_ReceivesEvents: 1
  m_OverrideSorting: 0
  m_OverridePixelPerfect: 0
  m_SortingBucketNormalizedSize: 0
  m_AdditionalShaderChannelsFlag: 0
  m_SortingLayerID: 0
  m_SortingOrder: 0
  m_TargetDisplay: 0
--- !u!224 &1856318171
RectTransform:
  m_ObjectHideFlags: 0
  m_PrefabParentObject: {fileID: 0}
  m_PrefabInternal: {fileID: 0}
  m_GameObject: {fileID: 1856318167}
  m_LocalRotation: {x: 0, y: 0, z: 0, w: 1}
  m_LocalPosition: {x: 0, y: 0, z: 0}
  m_LocalScale: {x: 0, y: 0, z: 0}
  m_Children:
  - {fileID: 2061675721}
  - {fileID: 615633999}
  m_Father: {fileID: 0}
  m_RootOrder: 5
  m_LocalEulerAnglesHint: {x: 0, y: 0, z: 0}
  m_AnchorMin: {x: 0, y: 0}
  m_AnchorMax: {x: 0, y: 0}
  m_AnchoredPosition: {x: 0, y: 0}
  m_SizeDelta: {x: 0, y: 0}
  m_Pivot: {x: 0, y: 0}
--- !u!1 &1868075309
GameObject:
  m_ObjectHideFlags: 0
  m_PrefabParentObject: {fileID: 1237689688175266, guid: 7d0bcfe5ecdb4e04a8dfabfc0bd1c32d,
    type: 2}
  m_PrefabInternal: {fileID: 1527947991}
  serializedVersion: 5
  m_Component:
  - component: {fileID: 1868075310}
  - component: {fileID: 1868075312}
  - component: {fileID: 1868075311}
  m_Layer: 5
  m_Name: Touch10
  m_TagString: Untagged
  m_Icon: {fileID: 0}
  m_NavMeshLayer: 0
  m_StaticEditorFlags: 0
  m_IsActive: 0
--- !u!224 &1868075310
RectTransform:
  m_ObjectHideFlags: 0
  m_PrefabParentObject: {fileID: 224836446791464734, guid: 7d0bcfe5ecdb4e04a8dfabfc0bd1c32d,
    type: 2}
  m_PrefabInternal: {fileID: 1527947991}
  m_GameObject: {fileID: 1868075309}
  m_LocalRotation: {x: 0, y: 0, z: 0, w: 1}
  m_LocalPosition: {x: 0, y: 0, z: 0}
  m_LocalScale: {x: 1, y: 1, z: 1}
  m_Children: []
  m_Father: {fileID: 1731137534}
  m_RootOrder: 9
  m_LocalEulerAnglesHint: {x: 0, y: 0, z: 0}
  m_AnchorMin: {x: 0.5, y: 0.5}
  m_AnchorMax: {x: 0.5, y: 0.5}
  m_AnchoredPosition: {x: 0, y: 0}
  m_SizeDelta: {x: 20, y: 20}
  m_Pivot: {x: 0.5, y: 0.5}
--- !u!114 &1868075311
MonoBehaviour:
  m_ObjectHideFlags: 0
  m_PrefabParentObject: {fileID: 114991906006050700, guid: 7d0bcfe5ecdb4e04a8dfabfc0bd1c32d,
    type: 2}
  m_PrefabInternal: {fileID: 1527947991}
  m_GameObject: {fileID: 1868075309}
  m_Enabled: 1
  m_EditorHideFlags: 0
  m_Script: {fileID: -765806418, guid: f5f67c52d1564df4a8936ccd202a3bd8, type: 3}
  m_Name: 
  m_EditorClassIdentifier: 
  m_Material: {fileID: 0}
  m_Color: {r: 1, g: 1, b: 1, a: 1}
  m_RaycastTarget: 0
  m_OnCullStateChanged:
    m_PersistentCalls:
      m_Calls: []
    m_TypeName: UnityEngine.UI.MaskableGraphic+CullStateChangedEvent, UnityEngine.UI,
      Version=1.0.0.0, Culture=neutral, PublicKeyToken=null
  m_Sprite: {fileID: 10913, guid: 0000000000000000f000000000000000, type: 0}
  m_Type: 0
  m_PreserveAspect: 0
  m_FillCenter: 1
  m_FillMethod: 4
  m_FillAmount: 1
  m_FillClockwise: 1
  m_FillOrigin: 0
--- !u!222 &1868075312
CanvasRenderer:
  m_ObjectHideFlags: 0
  m_PrefabParentObject: {fileID: 222456415975148148, guid: 7d0bcfe5ecdb4e04a8dfabfc0bd1c32d,
    type: 2}
  m_PrefabInternal: {fileID: 1527947991}
  m_GameObject: {fileID: 1868075309}
--- !u!1 &1868335146
GameObject:
  m_ObjectHideFlags: 0
  m_PrefabParentObject: {fileID: 1000011844012702, guid: 7d0bcfe5ecdb4e04a8dfabfc0bd1c32d,
    type: 2}
  m_PrefabInternal: {fileID: 1527947991}
  serializedVersion: 5
  m_Component:
  - component: {fileID: 1868335147}
  - component: {fileID: 1868335149}
  - component: {fileID: 1868335148}
  m_Layer: 5
  m_Name: Touch1
  m_TagString: Untagged
  m_Icon: {fileID: 0}
  m_NavMeshLayer: 0
  m_StaticEditorFlags: 0
  m_IsActive: 0
--- !u!224 &1868335147
RectTransform:
  m_ObjectHideFlags: 0
  m_PrefabParentObject: {fileID: 224000013552261752, guid: 7d0bcfe5ecdb4e04a8dfabfc0bd1c32d,
    type: 2}
  m_PrefabInternal: {fileID: 1527947991}
  m_GameObject: {fileID: 1868335146}
  m_LocalRotation: {x: 0, y: 0, z: 0, w: 1}
  m_LocalPosition: {x: 0, y: 0, z: 0}
  m_LocalScale: {x: 1, y: 1, z: 1}
  m_Children: []
  m_Father: {fileID: 1731137534}
  m_RootOrder: 0
  m_LocalEulerAnglesHint: {x: 0, y: 0, z: 0}
  m_AnchorMin: {x: 0.5, y: 0.5}
  m_AnchorMax: {x: 0.5, y: 0.5}
  m_AnchoredPosition: {x: 0, y: 0}
  m_SizeDelta: {x: 20, y: 20}
  m_Pivot: {x: 0.5, y: 0.5}
--- !u!114 &1868335148
MonoBehaviour:
  m_ObjectHideFlags: 0
  m_PrefabParentObject: {fileID: 114000011497357838, guid: 7d0bcfe5ecdb4e04a8dfabfc0bd1c32d,
    type: 2}
  m_PrefabInternal: {fileID: 1527947991}
  m_GameObject: {fileID: 1868335146}
  m_Enabled: 1
  m_EditorHideFlags: 0
  m_Script: {fileID: -765806418, guid: f5f67c52d1564df4a8936ccd202a3bd8, type: 3}
  m_Name: 
  m_EditorClassIdentifier: 
  m_Material: {fileID: 0}
  m_Color: {r: 1, g: 1, b: 1, a: 1}
  m_RaycastTarget: 0
  m_OnCullStateChanged:
    m_PersistentCalls:
      m_Calls: []
    m_TypeName: UnityEngine.UI.MaskableGraphic+CullStateChangedEvent, UnityEngine.UI,
      Version=1.0.0.0, Culture=neutral, PublicKeyToken=null
  m_Sprite: {fileID: 10913, guid: 0000000000000000f000000000000000, type: 0}
  m_Type: 0
  m_PreserveAspect: 0
  m_FillCenter: 1
  m_FillMethod: 4
  m_FillAmount: 1
  m_FillClockwise: 1
  m_FillOrigin: 0
--- !u!222 &1868335149
CanvasRenderer:
  m_ObjectHideFlags: 0
  m_PrefabParentObject: {fileID: 222000013261866428, guid: 7d0bcfe5ecdb4e04a8dfabfc0bd1c32d,
    type: 2}
  m_PrefabInternal: {fileID: 1527947991}
  m_GameObject: {fileID: 1868335146}
--- !u!1 &1883776817
GameObject:
  m_ObjectHideFlags: 0
  m_PrefabParentObject: {fileID: 1900670695115984, guid: 7d0bcfe5ecdb4e04a8dfabfc0bd1c32d,
    type: 2}
  m_PrefabInternal: {fileID: 1527947991}
  serializedVersion: 5
  m_Component:
  - component: {fileID: 1883776818}
  - component: {fileID: 1883776820}
  - component: {fileID: 1883776819}
  m_Layer: 5
  m_Name: Touch11
  m_TagString: Untagged
  m_Icon: {fileID: 0}
  m_NavMeshLayer: 0
  m_StaticEditorFlags: 0
  m_IsActive: 0
--- !u!224 &1883776818
RectTransform:
  m_ObjectHideFlags: 0
  m_PrefabParentObject: {fileID: 224634559840237482, guid: 7d0bcfe5ecdb4e04a8dfabfc0bd1c32d,
    type: 2}
  m_PrefabInternal: {fileID: 1527947991}
  m_GameObject: {fileID: 1883776817}
  m_LocalRotation: {x: -0, y: -0, z: -0, w: 1}
  m_LocalPosition: {x: 0, y: 0, z: 0}
  m_LocalScale: {x: 1, y: 1, z: 1}
  m_Children: []
  m_Father: {fileID: 1731137534}
  m_RootOrder: 10
  m_LocalEulerAnglesHint: {x: 0, y: 0, z: 0}
  m_AnchorMin: {x: 0.5, y: 0.5}
  m_AnchorMax: {x: 0.5, y: 0.5}
  m_AnchoredPosition: {x: 0, y: 0}
  m_SizeDelta: {x: 20, y: 20}
  m_Pivot: {x: 0.5, y: 0.5}
--- !u!114 &1883776819
MonoBehaviour:
  m_ObjectHideFlags: 0
  m_PrefabParentObject: {fileID: 114787634449058054, guid: 7d0bcfe5ecdb4e04a8dfabfc0bd1c32d,
    type: 2}
  m_PrefabInternal: {fileID: 1527947991}
  m_GameObject: {fileID: 1883776817}
  m_Enabled: 1
  m_EditorHideFlags: 0
  m_Script: {fileID: -765806418, guid: f5f67c52d1564df4a8936ccd202a3bd8, type: 3}
  m_Name: 
  m_EditorClassIdentifier: 
  m_Material: {fileID: 0}
  m_Color: {r: 1, g: 1, b: 1, a: 1}
  m_RaycastTarget: 0
  m_OnCullStateChanged:
    m_PersistentCalls:
      m_Calls: []
    m_TypeName: UnityEngine.UI.MaskableGraphic+CullStateChangedEvent, UnityEngine.UI,
      Version=1.0.0.0, Culture=neutral, PublicKeyToken=null
  m_Sprite: {fileID: 10913, guid: 0000000000000000f000000000000000, type: 0}
  m_Type: 0
  m_PreserveAspect: 0
  m_FillCenter: 1
  m_FillMethod: 4
  m_FillAmount: 1
  m_FillClockwise: 1
  m_FillOrigin: 0
--- !u!222 &1883776820
CanvasRenderer:
  m_ObjectHideFlags: 0
  m_PrefabParentObject: {fileID: 222777731090822376, guid: 7d0bcfe5ecdb4e04a8dfabfc0bd1c32d,
    type: 2}
  m_PrefabInternal: {fileID: 1527947991}
  m_GameObject: {fileID: 1883776817}
--- !u!1 &1937007951
GameObject:
  m_ObjectHideFlags: 0
  m_PrefabParentObject: {fileID: 1298077089539886, guid: 7d0bcfe5ecdb4e04a8dfabfc0bd1c32d,
    type: 2}
  m_PrefabInternal: {fileID: 1527947991}
  serializedVersion: 5
  m_Component:
  - component: {fileID: 1937007952}
  - component: {fileID: 1937007954}
  - component: {fileID: 1937007953}
  m_Layer: 5
  m_Name: Touch31
  m_TagString: Untagged
  m_Icon: {fileID: 0}
  m_NavMeshLayer: 0
  m_StaticEditorFlags: 0
  m_IsActive: 0
--- !u!224 &1937007952
RectTransform:
  m_ObjectHideFlags: 0
  m_PrefabParentObject: {fileID: 224006700820032450, guid: 7d0bcfe5ecdb4e04a8dfabfc0bd1c32d,
    type: 2}
  m_PrefabInternal: {fileID: 1527947991}
  m_GameObject: {fileID: 1937007951}
  m_LocalRotation: {x: -0, y: -0, z: -0, w: 1}
  m_LocalPosition: {x: 0, y: 0, z: 0}
  m_LocalScale: {x: 1, y: 1, z: 1}
  m_Children: []
  m_Father: {fileID: 1731137534}
  m_RootOrder: 30
  m_LocalEulerAnglesHint: {x: 0, y: 0, z: 0}
  m_AnchorMin: {x: 0.5, y: 0.5}
  m_AnchorMax: {x: 0.5, y: 0.5}
  m_AnchoredPosition: {x: 0, y: 0}
  m_SizeDelta: {x: 20, y: 20}
  m_Pivot: {x: 0.5, y: 0.5}
--- !u!114 &1937007953
MonoBehaviour:
  m_ObjectHideFlags: 0
  m_PrefabParentObject: {fileID: 114823648995266266, guid: 7d0bcfe5ecdb4e04a8dfabfc0bd1c32d,
    type: 2}
  m_PrefabInternal: {fileID: 1527947991}
  m_GameObject: {fileID: 1937007951}
  m_Enabled: 1
  m_EditorHideFlags: 0
  m_Script: {fileID: -765806418, guid: f5f67c52d1564df4a8936ccd202a3bd8, type: 3}
  m_Name: 
  m_EditorClassIdentifier: 
  m_Material: {fileID: 0}
  m_Color: {r: 1, g: 1, b: 1, a: 1}
  m_RaycastTarget: 0
  m_OnCullStateChanged:
    m_PersistentCalls:
      m_Calls: []
    m_TypeName: UnityEngine.UI.MaskableGraphic+CullStateChangedEvent, UnityEngine.UI,
      Version=1.0.0.0, Culture=neutral, PublicKeyToken=null
  m_Sprite: {fileID: 10913, guid: 0000000000000000f000000000000000, type: 0}
  m_Type: 0
  m_PreserveAspect: 0
  m_FillCenter: 1
  m_FillMethod: 4
  m_FillAmount: 1
  m_FillClockwise: 1
  m_FillOrigin: 0
--- !u!222 &1937007954
CanvasRenderer:
  m_ObjectHideFlags: 0
  m_PrefabParentObject: {fileID: 222197831559615652, guid: 7d0bcfe5ecdb4e04a8dfabfc0bd1c32d,
    type: 2}
  m_PrefabInternal: {fileID: 1527947991}
  m_GameObject: {fileID: 1937007951}
--- !u!1 &1970590320
GameObject:
  m_ObjectHideFlags: 0
  m_PrefabParentObject: {fileID: 1813996163489844, guid: 7d0bcfe5ecdb4e04a8dfabfc0bd1c32d,
    type: 2}
  m_PrefabInternal: {fileID: 1527947991}
  serializedVersion: 5
  m_Component:
  - component: {fileID: 1970590321}
  - component: {fileID: 1970590323}
  - component: {fileID: 1970590322}
  m_Layer: 5
  m_Name: Touch24
  m_TagString: Untagged
  m_Icon: {fileID: 0}
  m_NavMeshLayer: 0
  m_StaticEditorFlags: 0
  m_IsActive: 0
--- !u!224 &1970590321
RectTransform:
  m_ObjectHideFlags: 0
  m_PrefabParentObject: {fileID: 224252314011084142, guid: 7d0bcfe5ecdb4e04a8dfabfc0bd1c32d,
    type: 2}
  m_PrefabInternal: {fileID: 1527947991}
  m_GameObject: {fileID: 1970590320}
  m_LocalRotation: {x: -0, y: -0, z: -0, w: 1}
  m_LocalPosition: {x: 0, y: 0, z: 0}
  m_LocalScale: {x: 1, y: 1, z: 1}
  m_Children: []
  m_Father: {fileID: 1731137534}
  m_RootOrder: 23
  m_LocalEulerAnglesHint: {x: 0, y: 0, z: 0}
  m_AnchorMin: {x: 0.5, y: 0.5}
  m_AnchorMax: {x: 0.5, y: 0.5}
  m_AnchoredPosition: {x: 0, y: 0}
  m_SizeDelta: {x: 20, y: 20}
  m_Pivot: {x: 0.5, y: 0.5}
--- !u!114 &1970590322
MonoBehaviour:
  m_ObjectHideFlags: 0
  m_PrefabParentObject: {fileID: 114640355163962260, guid: 7d0bcfe5ecdb4e04a8dfabfc0bd1c32d,
    type: 2}
  m_PrefabInternal: {fileID: 1527947991}
  m_GameObject: {fileID: 1970590320}
  m_Enabled: 1
  m_EditorHideFlags: 0
  m_Script: {fileID: -765806418, guid: f5f67c52d1564df4a8936ccd202a3bd8, type: 3}
  m_Name: 
  m_EditorClassIdentifier: 
  m_Material: {fileID: 0}
  m_Color: {r: 1, g: 1, b: 1, a: 1}
  m_RaycastTarget: 0
  m_OnCullStateChanged:
    m_PersistentCalls:
      m_Calls: []
    m_TypeName: UnityEngine.UI.MaskableGraphic+CullStateChangedEvent, UnityEngine.UI,
      Version=1.0.0.0, Culture=neutral, PublicKeyToken=null
  m_Sprite: {fileID: 10913, guid: 0000000000000000f000000000000000, type: 0}
  m_Type: 0
  m_PreserveAspect: 0
  m_FillCenter: 1
  m_FillMethod: 4
  m_FillAmount: 1
  m_FillClockwise: 1
  m_FillOrigin: 0
--- !u!222 &1970590323
CanvasRenderer:
  m_ObjectHideFlags: 0
  m_PrefabParentObject: {fileID: 222222261845418462, guid: 7d0bcfe5ecdb4e04a8dfabfc0bd1c32d,
    type: 2}
  m_PrefabInternal: {fileID: 1527947991}
  m_GameObject: {fileID: 1970590320}
--- !u!1 &2061675720
GameObject:
  m_ObjectHideFlags: 0
  m_PrefabParentObject: {fileID: 0}
  m_PrefabInternal: {fileID: 0}
  serializedVersion: 5
  m_Component:
  - component: {fileID: 2061675721}
  - component: {fileID: 2061675723}
  - component: {fileID: 2061675722}
  m_Layer: 5
  m_Name: Text
  m_TagString: Untagged
  m_Icon: {fileID: 0}
  m_NavMeshLayer: 0
  m_StaticEditorFlags: 0
  m_IsActive: 1
--- !u!224 &2061675721
RectTransform:
  m_ObjectHideFlags: 0
  m_PrefabParentObject: {fileID: 0}
  m_PrefabInternal: {fileID: 0}
  m_GameObject: {fileID: 2061675720}
  m_LocalRotation: {x: 0, y: 0, z: 0, w: 1}
  m_LocalPosition: {x: 0, y: 0, z: 0}
  m_LocalScale: {x: 1, y: 1, z: 1}
  m_Children: []
  m_Father: {fileID: 1856318171}
  m_RootOrder: 0
  m_LocalEulerAnglesHint: {x: 0, y: 0, z: 0}
  m_AnchorMin: {x: 0, y: 1}
  m_AnchorMax: {x: 1, y: 1}
  m_AnchoredPosition: {x: 0, y: 0}
  m_SizeDelta: {x: 0, y: 44}
  m_Pivot: {x: 0.5, y: 1}
--- !u!114 &2061675722
MonoBehaviour:
  m_ObjectHideFlags: 0
  m_PrefabParentObject: {fileID: 0}
  m_PrefabInternal: {fileID: 0}
  m_GameObject: {fileID: 2061675720}
  m_Enabled: 1
  m_EditorHideFlags: 0
  m_Script: {fileID: 708705254, guid: f70555f144d8491a825f0804e09c671c, type: 3}
  m_Name: 
  m_EditorClassIdentifier: 
  m_Material: {fileID: 0}
  m_Color: {r: 1, g: 1, b: 1, a: 1}
  m_RaycastTarget: 1
  m_OnCullStateChanged:
    m_PersistentCalls:
      m_Calls: []
    m_TypeName: UnityEngine.UI.MaskableGraphic+CullStateChangedEvent, UnityEngine.UI,
      Version=1.0.0.0, Culture=neutral, PublicKeyToken=null
  m_FontData:
    m_Font: {fileID: 10102, guid: 0000000000000000e000000000000000, type: 0}
    m_FontSize: 24
    m_FontStyle: 0
    m_BestFit: 0
    m_MinSize: 2
    m_MaxSize: 40
    m_Alignment: 4
    m_AlignByGeometry: 0
    m_RichText: 1
    m_HorizontalOverflow: 0
    m_VerticalOverflow: 0
    m_LineSpacing: 1
  m_Text: Two finger rotate to orbit the cube
--- !u!222 &2061675723
CanvasRenderer:
  m_ObjectHideFlags: 0
  m_PrefabParentObject: {fileID: 0}
  m_PrefabInternal: {fileID: 0}
  m_GameObject: {fileID: 2061675720}
--- !u!1 &2082723554
GameObject:
  m_ObjectHideFlags: 0
  m_PrefabParentObject: {fileID: 1079580068766918, guid: 7d0bcfe5ecdb4e04a8dfabfc0bd1c32d,
    type: 2}
  m_PrefabInternal: {fileID: 1527947991}
  serializedVersion: 5
  m_Component:
  - component: {fileID: 2082723555}
  - component: {fileID: 2082723557}
  - component: {fileID: 2082723556}
  m_Layer: 5
  m_Name: Touch27
  m_TagString: Untagged
  m_Icon: {fileID: 0}
  m_NavMeshLayer: 0
  m_StaticEditorFlags: 0
  m_IsActive: 0
--- !u!224 &2082723555
RectTransform:
  m_ObjectHideFlags: 0
  m_PrefabParentObject: {fileID: 224294956500910024, guid: 7d0bcfe5ecdb4e04a8dfabfc0bd1c32d,
    type: 2}
  m_PrefabInternal: {fileID: 1527947991}
  m_GameObject: {fileID: 2082723554}
  m_LocalRotation: {x: -0, y: -0, z: -0, w: 1}
  m_LocalPosition: {x: 0, y: 0, z: 0}
  m_LocalScale: {x: 1, y: 1, z: 1}
  m_Children: []
  m_Father: {fileID: 1731137534}
  m_RootOrder: 26
  m_LocalEulerAnglesHint: {x: 0, y: 0, z: 0}
  m_AnchorMin: {x: 0.5, y: 0.5}
  m_AnchorMax: {x: 0.5, y: 0.5}
  m_AnchoredPosition: {x: 0, y: 0}
  m_SizeDelta: {x: 20, y: 20}
  m_Pivot: {x: 0.5, y: 0.5}
--- !u!114 &2082723556
MonoBehaviour:
  m_ObjectHideFlags: 0
  m_PrefabParentObject: {fileID: 114300954402975154, guid: 7d0bcfe5ecdb4e04a8dfabfc0bd1c32d,
    type: 2}
  m_PrefabInternal: {fileID: 1527947991}
  m_GameObject: {fileID: 2082723554}
  m_Enabled: 1
  m_EditorHideFlags: 0
  m_Script: {fileID: -765806418, guid: f5f67c52d1564df4a8936ccd202a3bd8, type: 3}
  m_Name: 
  m_EditorClassIdentifier: 
  m_Material: {fileID: 0}
  m_Color: {r: 1, g: 1, b: 1, a: 1}
  m_RaycastTarget: 0
  m_OnCullStateChanged:
    m_PersistentCalls:
      m_Calls: []
    m_TypeName: UnityEngine.UI.MaskableGraphic+CullStateChangedEvent, UnityEngine.UI,
      Version=1.0.0.0, Culture=neutral, PublicKeyToken=null
  m_Sprite: {fileID: 10913, guid: 0000000000000000f000000000000000, type: 0}
  m_Type: 0
  m_PreserveAspect: 0
  m_FillCenter: 1
  m_FillMethod: 4
  m_FillAmount: 1
  m_FillClockwise: 1
  m_FillOrigin: 0
--- !u!222 &2082723557
CanvasRenderer:
  m_ObjectHideFlags: 0
  m_PrefabParentObject: {fileID: 222175088383803316, guid: 7d0bcfe5ecdb4e04a8dfabfc0bd1c32d,
    type: 2}
  m_PrefabInternal: {fileID: 1527947991}
  m_GameObject: {fileID: 2082723554}
